dataset,fragment,events,generator,time per event,size per event,match efficiency,filter efficiency
HTo2LongLivedTo2mu2jets_MH-1000_MFF-350_CTau-350mm_TuneCP5_13TeV-pythia8,genFragments/Generator/Pythia/HTo2LongLivedTo2mu2jets/TuneCP5/HTo2LongLivedTo2mu2jets_MH-1000_MFF-350_CTau-350mm_TuneCP5_13TeV_pythia8_cff.py,30000,pythia8,2.99999,111.2973,1.0,1.0
HTo2LongLivedTo2mu2jets_MH-125_MFF-20_CTau-130mm_TuneCP5_13TeV-pythia8,genFragments/Generator/Pythia/HTo2LongLivedTo2mu2jets/TuneCP5/HTo2LongLivedTo2mu2jets_MH-125_MFF-20_CTau-130mm_TuneCP5_13TeV_pythia8_cff.py,200000,pythia8,3.51647,98.432,1.0,1.0
HTo2LongLivedTo2mu2jets_MH-200_MFF-50_CTau-200mm_TuneCP5_13TeV-pythia8,genFragments/Generator/Pythia/HTo2LongLivedTo2mu2jets/TuneCP5/HTo2LongLivedTo2mu2jets_MH-200_MFF-50_CTau-200mm_TuneCP5_13TeV_pythia8_cff.py,100000,pythia8,2.91296,104.619,1.0,1.0
HTo2LongLivedTo2mu2jets_MH-400_MFF-150_CTau-400mm_TuneCP5_13TeV-pythia8,genFragments/Generator/Pythia/HTo2LongLivedTo2mu2jets/TuneCP5/HTo2LongLivedTo2mu2jets_MH-400_MFF-150_CTau-400mm_TuneCP5_13TeV_pythia8_cff.py,50000,pythia8,3.02677,103.5776,1.0,1.0
