Dataset name,Total events,Fragment,Generator,Gridpack location
HeavyNeutrino_trilepton_M-10p0_V-0p0002236067_mu_TuneCUETP_madgraph_pythia8,250000,genFragments/Hadronizer/13TeV/Hadronizer_TuneCUETP8M1_13TeV_generic_LHE_pythia8_PSweights_cff.py,aMCatNLO,/afs/cern.ch/work/m/mvit/public/gridpacks_displaced_HNL/HeavyNeutrino_trilepton_M-10.0_V-0.0002236067_mu_pre2017_massiveAndCKM_LO_slc6_amd64_gcc481_CMSSW_7_1_30_tarball.tar.xz
HeavyNeutrino_trilepton_M-11p0_V-0p0002236067_mu_TuneCUETP_madgraph_pythia8,250000,genFragments/Hadronizer/13TeV/Hadronizer_TuneCUETP8M1_13TeV_generic_LHE_pythia8_PSweights_cff.py,aMCatNLO,/afs/cern.ch/work/m/mvit/public/gridpacks_displaced_HNL/HeavyNeutrino_trilepton_M-11.0_V-0.0002236067_mu_pre2017_massiveAndCKM_LO_slc6_amd64_gcc481_CMSSW_7_1_30_tarball.tar.xz
HeavyNeutrino_trilepton_M-11p0_V-0p0003162277_e_TuneCUETP_madgraph_pythia8,250000,genFragments/Hadronizer/13TeV/Hadronizer_TuneCUETP8M1_13TeV_generic_LHE_pythia8_PSweights_cff.py,aMCatNLO,/afs/cern.ch/work/m/mvit/public/gridpacks_displaced_HNL/HeavyNeutrino_trilepton_M-11.0_V-0.0003162277_e_pre2017_massiveAndCKM_LO_slc6_amd64_gcc481_CMSSW_7_1_30_tarball.tar.xz
HeavyNeutrino_trilepton_M-12p0_V-0p0002236067_mu_TuneCUETP_madgraph_pythia8,250000,genFragments/Hadronizer/13TeV/Hadronizer_TuneCUETP8M1_13TeV_generic_LHE_pythia8_PSweights_cff.py,aMCatNLO,/afs/cern.ch/work/m/mvit/public/gridpacks_displaced_HNL/HeavyNeutrino_trilepton_M-12.0_V-0.0002236067_mu_pre2017_massiveAndCKM_LO_slc6_amd64_gcc481_CMSSW_7_1_30_tarball.tar.xz
HeavyNeutrino_trilepton_M-12p0_V-0p0003162277_e_TuneCUETP_madgraph_pythia8,250000,genFragments/Hadronizer/13TeV/Hadronizer_TuneCUETP8M1_13TeV_generic_LHE_pythia8_PSweights_cff.py,aMCatNLO,/afs/cern.ch/work/m/mvit/public/gridpacks_displaced_HNL/HeavyNeutrino_trilepton_M-12.0_V-0.0003162277_e_pre2017_massiveAndCKM_LO_slc6_amd64_gcc481_CMSSW_7_1_30_tarball.tar.xz
HeavyNeutrino_trilepton_M-13p0_V-0p0002236067_mu_TuneCUETP_madgraph_pythia8,250000,genFragments/Hadronizer/13TeV/Hadronizer_TuneCUETP8M1_13TeV_generic_LHE_pythia8_PSweights_cff.py,aMCatNLO,/afs/cern.ch/work/m/mvit/public/gridpacks_displaced_HNL/HeavyNeutrino_trilepton_M-13.0_V-0.0002236067_mu_pre2017_massiveAndCKM_LO_slc6_amd64_gcc481_CMSSW_7_1_30_tarball.tar.xz
HeavyNeutrino_trilepton_M-13p0_V-0p0003162277_e_TuneCUETP_madgraph_pythia8,250000,genFragments/Hadronizer/13TeV/Hadronizer_TuneCUETP8M1_13TeV_generic_LHE_pythia8_PSweights_cff.py,aMCatNLO,/afs/cern.ch/work/m/mvit/public/gridpacks_displaced_HNL/HeavyNeutrino_trilepton_M-13.0_V-0.0003162277_e_pre2017_massiveAndCKM_LO_slc6_amd64_gcc481_CMSSW_7_1_30_tarball.tar.xz
HeavyNeutrino_trilepton_M-14p0_V-0p0002236067_mu_TuneCUETP_madgraph_pythia8,250000,genFragments/Hadronizer/13TeV/Hadronizer_TuneCUETP8M1_13TeV_generic_LHE_pythia8_PSweights_cff.py,aMCatNLO,/afs/cern.ch/work/m/mvit/public/gridpacks_displaced_HNL/HeavyNeutrino_trilepton_M-14.0_V-0.0002236067_mu_pre2017_massiveAndCKM_LO_slc6_amd64_gcc481_CMSSW_7_1_30_tarball.tar.xz
HeavyNeutrino_trilepton_M-14p0_V-0p0003162277_e_TuneCUETP_madgraph_pythia8,250000,genFragments/Hadronizer/13TeV/Hadronizer_TuneCUETP8M1_13TeV_generic_LHE_pythia8_PSweights_cff.py,aMCatNLO,/afs/cern.ch/work/m/mvit/public/gridpacks_displaced_HNL/HeavyNeutrino_trilepton_M-14.0_V-0.0003162277_e_pre2017_massiveAndCKM_LO_slc6_amd64_gcc481_CMSSW_7_1_30_tarball.tar.xz
HeavyNeutrino_trilepton_M-15p0_V-0p0002236067_mu_TuneCUETP_madgraph_pythia8,250000,genFragments/Hadronizer/13TeV/Hadronizer_TuneCUETP8M1_13TeV_generic_LHE_pythia8_PSweights_cff.py,aMCatNLO,/afs/cern.ch/work/m/mvit/public/gridpacks_displaced_HNL/HeavyNeutrino_trilepton_M-15.0_V-0.0002236067_mu_pre2017_massiveAndCKM_LO_slc6_amd64_gcc481_CMSSW_7_1_30_tarball.tar.xz
HeavyNeutrino_trilepton_M-15p0_V-0p0003162277_e_TuneCUETP_madgraph_pythia8,250000,genFragments/Hadronizer/13TeV/Hadronizer_TuneCUETP8M1_13TeV_generic_LHE_pythia8_PSweights_cff.py,aMCatNLO,/afs/cern.ch/work/m/mvit/public/gridpacks_displaced_HNL/HeavyNeutrino_trilepton_M-15.0_V-0.0003162277_e_pre2017_massiveAndCKM_LO_slc6_amd64_gcc481_CMSSW_7_1_30_tarball.tar.xz
HeavyNeutrino_trilepton_M-15p5_V-0p0002236067_mu_TuneCUETP_madgraph_pythia8,250000,genFragments/Hadronizer/13TeV/Hadronizer_TuneCUETP8M1_13TeV_generic_LHE_pythia8_PSweights_cff.py,aMCatNLO,/afs/cern.ch/work/m/mvit/public/gridpacks_displaced_HNL/HeavyNeutrino_trilepton_M-15.5_V-0.0002236067_mu_pre2017_massiveAndCKM_LO_slc6_amd64_gcc481_CMSSW_7_1_30_tarball.tar.xz
HeavyNeutrino_trilepton_M-15p5_V-0p0003162277_e_TuneCUETP_madgraph_pythia8,250000,genFragments/Hadronizer/13TeV/Hadronizer_TuneCUETP8M1_13TeV_generic_LHE_pythia8_PSweights_cff.py,aMCatNLO,/afs/cern.ch/work/m/mvit/public/gridpacks_displaced_HNL/HeavyNeutrino_trilepton_M-15.5_V-0.0003162277_e_pre2017_massiveAndCKM_LO_slc6_amd64_gcc481_CMSSW_7_1_30_tarball.tar.xz
HeavyNeutrino_trilepton_M-15p5_V-0p0014_mu_TuneCUETP_madgraph_pythia8,250000,genFragments/Hadronizer/13TeV/Hadronizer_TuneCUETP8M1_13TeV_generic_LHE_pythia8_PSweights_cff.py,aMCatNLO,/afs/cern.ch/work/m/mvit/public/gridpacks_displaced_HNL/HeavyNeutrino_trilepton_M-15.5_V-0.0014_mu_pre2017_massiveAndCKM_LO_slc6_amd64_gcc481_CMSSW_7_1_30_tarball.tar.xz
HeavyNeutrino_trilepton_M-15p5_V-0p002236_e_TuneCUETP_madgraph_pythia8,250000,genFragments/Hadronizer/13TeV/Hadronizer_TuneCUETP8M1_13TeV_generic_LHE_pythia8_PSweights_cff.py,aMCatNLO,/afs/cern.ch/work/m/mvit/public/gridpacks_displaced_HNL/HeavyNeutrino_trilepton_M-15.5_V-0.002236_e_pre2017_massiveAndCKM_LO_slc6_amd64_gcc481_CMSSW_7_1_30_tarball.tar.xz
HeavyNeutrino_trilepton_M-16p0_V-0p0002236067_mu_TuneCUETP_madgraph_pythia8,250000,genFragments/Hadronizer/13TeV/Hadronizer_TuneCUETP8M1_13TeV_generic_LHE_pythia8_PSweights_cff.py,aMCatNLO,/afs/cern.ch/work/m/mvit/public/gridpacks_displaced_HNL/HeavyNeutrino_trilepton_M-16.0_V-0.0002236067_mu_pre2017_massiveAndCKM_LO_slc6_amd64_gcc481_CMSSW_7_1_30_tarball.tar.xz
HeavyNeutrino_trilepton_M-16p0_V-0p0003162277_e_TuneCUETP_madgraph_pythia8,250000,genFragments/Hadronizer/13TeV/Hadronizer_TuneCUETP8M1_13TeV_generic_LHE_pythia8_PSweights_cff.py,aMCatNLO,/afs/cern.ch/work/m/mvit/public/gridpacks_displaced_HNL/HeavyNeutrino_trilepton_M-16.0_V-0.0003162277_e_pre2017_massiveAndCKM_LO_slc6_amd64_gcc481_CMSSW_7_1_30_tarball.tar.xz
HeavyNeutrino_trilepton_M-16p0_V-0p0014_mu_TuneCUETP_madgraph_pythia8,250000,genFragments/Hadronizer/13TeV/Hadronizer_TuneCUETP8M1_13TeV_generic_LHE_pythia8_PSweights_cff.py,aMCatNLO,/afs/cern.ch/work/m/mvit/public/gridpacks_displaced_HNL/HeavyNeutrino_trilepton_M-16.0_V-0.0014_mu_pre2017_massiveAndCKM_LO_slc6_amd64_gcc481_CMSSW_7_1_30_tarball.tar.xz
HeavyNeutrino_trilepton_M-16p0_V-0p002236_e_TuneCUETP_madgraph_pythia8,250000,genFragments/Hadronizer/13TeV/Hadronizer_TuneCUETP8M1_13TeV_generic_LHE_pythia8_PSweights_cff.py,aMCatNLO,/afs/cern.ch/work/m/mvit/public/gridpacks_displaced_HNL/HeavyNeutrino_trilepton_M-16.0_V-0.002236_e_pre2017_massiveAndCKM_LO_slc6_amd64_gcc481_CMSSW_7_1_30_tarball.tar.xz
HeavyNeutrino_trilepton_M-16p5_V-0p0002236067_mu_TuneCUETP_madgraph_pythia8,250000,genFragments/Hadronizer/13TeV/Hadronizer_TuneCUETP8M1_13TeV_generic_LHE_pythia8_PSweights_cff.py,aMCatNLO,/afs/cern.ch/work/m/mvit/public/gridpacks_displaced_HNL/HeavyNeutrino_trilepton_M-16.5_V-0.0002236067_mu_pre2017_massiveAndCKM_LO_slc6_amd64_gcc481_CMSSW_7_1_30_tarball.tar.xz
HeavyNeutrino_trilepton_M-16p5_V-0p0003162277_e_TuneCUETP_madgraph_pythia8,250000,genFragments/Hadronizer/13TeV/Hadronizer_TuneCUETP8M1_13TeV_generic_LHE_pythia8_PSweights_cff.py,aMCatNLO,/afs/cern.ch/work/m/mvit/public/gridpacks_displaced_HNL/HeavyNeutrino_trilepton_M-16.5_V-0.0003162277_e_pre2017_massiveAndCKM_LO_slc6_amd64_gcc481_CMSSW_7_1_30_tarball.tar.xz
HeavyNeutrino_trilepton_M-16p5_V-0p0014_mu_TuneCUETP_madgraph_pythia8,250000,genFragments/Hadronizer/13TeV/Hadronizer_TuneCUETP8M1_13TeV_generic_LHE_pythia8_PSweights_cff.py,aMCatNLO,/afs/cern.ch/work/m/mvit/public/gridpacks_displaced_HNL/HeavyNeutrino_trilepton_M-16.5_V-0.0014_mu_pre2017_massiveAndCKM_LO_slc6_amd64_gcc481_CMSSW_7_1_30_tarball.tar.xz
HeavyNeutrino_trilepton_M-16p5_V-0p002236_e_TuneCUETP_madgraph_pythia8,250000,genFragments/Hadronizer/13TeV/Hadronizer_TuneCUETP8M1_13TeV_generic_LHE_pythia8_PSweights_cff.py,aMCatNLO,/afs/cern.ch/work/m/mvit/public/gridpacks_displaced_HNL/HeavyNeutrino_trilepton_M-16.5_V-0.002236_e_pre2017_massiveAndCKM_LO_slc6_amd64_gcc481_CMSSW_7_1_30_tarball.tar.xz
HeavyNeutrino_trilepton_M-17p0_V-0p0002236067_mu_TuneCUETP_madgraph_pythia8,250000,genFragments/Hadronizer/13TeV/Hadronizer_TuneCUETP8M1_13TeV_generic_LHE_pythia8_PSweights_cff.py,aMCatNLO,/afs/cern.ch/work/m/mvit/public/gridpacks_displaced_HNL/HeavyNeutrino_trilepton_M-17.0_V-0.0002236067_mu_pre2017_massiveAndCKM_LO_slc6_amd64_gcc481_CMSSW_7_1_30_tarball.tar.xz
HeavyNeutrino_trilepton_M-17p0_V-0p0003162277_e_TuneCUETP_madgraph_pythia8,250000,genFragments/Hadronizer/13TeV/Hadronizer_TuneCUETP8M1_13TeV_generic_LHE_pythia8_PSweights_cff.py,aMCatNLO,/afs/cern.ch/work/m/mvit/public/gridpacks_displaced_HNL/HeavyNeutrino_trilepton_M-17.0_V-0.0003162277_e_pre2017_massiveAndCKM_LO_slc6_amd64_gcc481_CMSSW_7_1_30_tarball.tar.xz
HeavyNeutrino_trilepton_M-17p0_V-0p0014_mu_TuneCUETP_madgraph_pythia8,250000,genFragments/Hadronizer/13TeV/Hadronizer_TuneCUETP8M1_13TeV_generic_LHE_pythia8_PSweights_cff.py,aMCatNLO,/afs/cern.ch/work/m/mvit/public/gridpacks_displaced_HNL/HeavyNeutrino_trilepton_M-17.0_V-0.0014_mu_pre2017_massiveAndCKM_LO_slc6_amd64_gcc481_CMSSW_7_1_30_tarball.tar.xz
HeavyNeutrino_trilepton_M-17p0_V-0p002236_e_TuneCUETP_madgraph_pythia8,250000,genFragments/Hadronizer/13TeV/Hadronizer_TuneCUETP8M1_13TeV_generic_LHE_pythia8_PSweights_cff.py,aMCatNLO,/afs/cern.ch/work/m/mvit/public/gridpacks_displaced_HNL/HeavyNeutrino_trilepton_M-17.0_V-0.002236_e_pre2017_massiveAndCKM_LO_slc6_amd64_gcc481_CMSSW_7_1_30_tarball.tar.xz
HeavyNeutrino_trilepton_M-17p5_V-0p0002236067_mu_TuneCUETP_madgraph_pythia8,250000,genFragments/Hadronizer/13TeV/Hadronizer_TuneCUETP8M1_13TeV_generic_LHE_pythia8_PSweights_cff.py,aMCatNLO,/afs/cern.ch/work/m/mvit/public/gridpacks_displaced_HNL/HeavyNeutrino_trilepton_M-17.5_V-0.0002236067_mu_pre2017_massiveAndCKM_LO_slc6_amd64_gcc481_CMSSW_7_1_30_tarball.tar.xz
HeavyNeutrino_trilepton_M-17p5_V-0p0003162277_e_TuneCUETP_madgraph_pythia8,250000,genFragments/Hadronizer/13TeV/Hadronizer_TuneCUETP8M1_13TeV_generic_LHE_pythia8_PSweights_cff.py,aMCatNLO,/afs/cern.ch/work/m/mvit/public/gridpacks_displaced_HNL/HeavyNeutrino_trilepton_M-17.5_V-0.0003162277_e_pre2017_massiveAndCKM_LO_slc6_amd64_gcc481_CMSSW_7_1_30_tarball.tar.xz
HeavyNeutrino_trilepton_M-17p5_V-0p0014_mu_TuneCUETP_madgraph_pythia8,250000,genFragments/Hadronizer/13TeV/Hadronizer_TuneCUETP8M1_13TeV_generic_LHE_pythia8_PSweights_cff.py,aMCatNLO,/afs/cern.ch/work/m/mvit/public/gridpacks_displaced_HNL/HeavyNeutrino_trilepton_M-17.5_V-0.0014_mu_pre2017_massiveAndCKM_LO_slc6_amd64_gcc481_CMSSW_7_1_30_tarball.tar.xz
HeavyNeutrino_trilepton_M-17p5_V-0p002236_e_TuneCUETP_madgraph_pythia8,250000,genFragments/Hadronizer/13TeV/Hadronizer_TuneCUETP8M1_13TeV_generic_LHE_pythia8_PSweights_cff.py,aMCatNLO,/afs/cern.ch/work/m/mvit/public/gridpacks_displaced_HNL/HeavyNeutrino_trilepton_M-17.5_V-0.002236_e_pre2017_massiveAndCKM_LO_slc6_amd64_gcc481_CMSSW_7_1_30_tarball.tar.xz
HeavyNeutrino_trilepton_M-18p0_V-0p0002236067_mu_TuneCUETP_madgraph_pythia8,250000,genFragments/Hadronizer/13TeV/Hadronizer_TuneCUETP8M1_13TeV_generic_LHE_pythia8_PSweights_cff.py,aMCatNLO,/afs/cern.ch/work/m/mvit/public/gridpacks_displaced_HNL/HeavyNeutrino_trilepton_M-18.0_V-0.0002236067_mu_pre2017_massiveAndCKM_LO_slc6_amd64_gcc481_CMSSW_7_1_30_tarball.tar.xz
HeavyNeutrino_trilepton_M-18p0_V-0p0003162277_e_TuneCUETP_madgraph_pythia8,250000,genFragments/Hadronizer/13TeV/Hadronizer_TuneCUETP8M1_13TeV_generic_LHE_pythia8_PSweights_cff.py,aMCatNLO,/afs/cern.ch/work/m/mvit/public/gridpacks_displaced_HNL/HeavyNeutrino_trilepton_M-18.0_V-0.0003162277_e_pre2017_massiveAndCKM_LO_slc6_amd64_gcc481_CMSSW_7_1_30_tarball.tar.xz
HeavyNeutrino_trilepton_M-18p0_V-0p0014_mu_TuneCUETP_madgraph_pythia8,250000,genFragments/Hadronizer/13TeV/Hadronizer_TuneCUETP8M1_13TeV_generic_LHE_pythia8_PSweights_cff.py,aMCatNLO,/afs/cern.ch/work/m/mvit/public/gridpacks_displaced_HNL/HeavyNeutrino_trilepton_M-18.0_V-0.0014_mu_pre2017_massiveAndCKM_LO_slc6_amd64_gcc481_CMSSW_7_1_30_tarball.tar.xz
HeavyNeutrino_trilepton_M-18p0_V-0p002236_e_TuneCUETP_madgraph_pythia8,250000,genFragments/Hadronizer/13TeV/Hadronizer_TuneCUETP8M1_13TeV_generic_LHE_pythia8_PSweights_cff.py,aMCatNLO,/afs/cern.ch/work/m/mvit/public/gridpacks_displaced_HNL/HeavyNeutrino_trilepton_M-18.0_V-0.002236_e_pre2017_massiveAndCKM_LO_slc6_amd64_gcc481_CMSSW_7_1_30_tarball.tar.xz
HeavyNeutrino_trilepton_M-18p5_V-0p0002236067_mu_TuneCUETP_madgraph_pythia8,250000,genFragments/Hadronizer/13TeV/Hadronizer_TuneCUETP8M1_13TeV_generic_LHE_pythia8_PSweights_cff.py,aMCatNLO,/afs/cern.ch/work/m/mvit/public/gridpacks_displaced_HNL/HeavyNeutrino_trilepton_M-18.5_V-0.0002236067_mu_pre2017_massiveAndCKM_LO_slc6_amd64_gcc481_CMSSW_7_1_30_tarball.tar.xz
HeavyNeutrino_trilepton_M-18p5_V-0p0003162277_e_TuneCUETP_madgraph_pythia8,250000,genFragments/Hadronizer/13TeV/Hadronizer_TuneCUETP8M1_13TeV_generic_LHE_pythia8_PSweights_cff.py,aMCatNLO,/afs/cern.ch/work/m/mvit/public/gridpacks_displaced_HNL/HeavyNeutrino_trilepton_M-18.5_V-0.0003162277_e_pre2017_massiveAndCKM_LO_slc6_amd64_gcc481_CMSSW_7_1_30_tarball.tar.xz
HeavyNeutrino_trilepton_M-19p0_V-0p0002236067_mu_TuneCUETP_madgraph_pythia8,250000,genFragments/Hadronizer/13TeV/Hadronizer_TuneCUETP8M1_13TeV_generic_LHE_pythia8_PSweights_cff.py,aMCatNLO,/afs/cern.ch/work/m/mvit/public/gridpacks_displaced_HNL/HeavyNeutrino_trilepton_M-19.0_V-0.0002236067_mu_pre2017_massiveAndCKM_LO_slc6_amd64_gcc481_CMSSW_7_1_30_tarball.tar.xz
HeavyNeutrino_trilepton_M-19p0_V-0p0003162277_e_TuneCUETP_madgraph_pythia8,250000,genFragments/Hadronizer/13TeV/Hadronizer_TuneCUETP8M1_13TeV_generic_LHE_pythia8_PSweights_cff.py,aMCatNLO,/afs/cern.ch/work/m/mvit/public/gridpacks_displaced_HNL/HeavyNeutrino_trilepton_M-19.0_V-0.0003162277_e_pre2017_massiveAndCKM_LO_slc6_amd64_gcc481_CMSSW_7_1_30_tarball.tar.xz
HeavyNeutrino_trilepton_M-19p5_V-0p0002236067_mu_TuneCUETP_madgraph_pythia8,250000,genFragments/Hadronizer/13TeV/Hadronizer_TuneCUETP8M1_13TeV_generic_LHE_pythia8_PSweights_cff.py,aMCatNLO,/afs/cern.ch/work/m/mvit/public/gridpacks_displaced_HNL/HeavyNeutrino_trilepton_M-19.5_V-0.0002236067_mu_pre2017_massiveAndCKM_LO_slc6_amd64_gcc481_CMSSW_7_1_30_tarball.tar.xz
HeavyNeutrino_trilepton_M-19p5_V-0p0003162277_e_TuneCUETP_madgraph_pythia8,250000,genFragments/Hadronizer/13TeV/Hadronizer_TuneCUETP8M1_13TeV_generic_LHE_pythia8_PSweights_cff.py,aMCatNLO,/afs/cern.ch/work/m/mvit/public/gridpacks_displaced_HNL/HeavyNeutrino_trilepton_M-19.5_V-0.0003162277_e_pre2017_massiveAndCKM_LO_slc6_amd64_gcc481_CMSSW_7_1_30_tarball.tar.xz
HeavyNeutrino_trilepton_M-20p0_V-0p0002236067_mu_TuneCUETP_madgraph_pythia8,250000,genFragments/Hadronizer/13TeV/Hadronizer_TuneCUETP8M1_13TeV_generic_LHE_pythia8_PSweights_cff.py,aMCatNLO,/afs/cern.ch/work/m/mvit/public/gridpacks_displaced_HNL/HeavyNeutrino_trilepton_M-20.0_V-0.0002236067_mu_pre2017_massiveAndCKM_LO_slc6_amd64_gcc481_CMSSW_7_1_30_tarball.tar.xz
HeavyNeutrino_trilepton_M-20p0_V-0p0003162277_e_TuneCUETP_madgraph_pythia8,250000,genFragments/Hadronizer/13TeV/Hadronizer_TuneCUETP8M1_13TeV_generic_LHE_pythia8_PSweights_cff.py,aMCatNLO,/afs/cern.ch/work/m/mvit/public/gridpacks_displaced_HNL/HeavyNeutrino_trilepton_M-20.0_V-0.0003162277_e_pre2017_massiveAndCKM_LO_slc6_amd64_gcc481_CMSSW_7_1_30_tarball.tar.xz
HeavyNeutrino_trilepton_M-8p0_V-0p0002236067_mu_TuneCUETP_madgraph_pythia8,250000,genFragments/Hadronizer/13TeV/Hadronizer_TuneCUETP8M1_13TeV_generic_LHE_pythia8_PSweights_cff.py,aMCatNLO,/afs/cern.ch/work/m/mvit/public/gridpacks_displaced_HNL/HeavyNeutrino_trilepton_M-8.0_V-0.0002236067_mu_pre2017_massiveAndCKM_LO_slc6_amd64_gcc481_CMSSW_7_1_30_tarball.tar.xz
HeavyNeutrino_trilepton_M-9p0_V-0p0002236067_mu_TuneCUETP_madgraph_pythia8,250000,genFragments/Hadronizer/13TeV/Hadronizer_TuneCUETP8M1_13TeV_generic_LHE_pythia8_PSweights_cff.py,aMCatNLO,/afs/cern.ch/work/m/mvit/public/gridpacks_displaced_HNL/HeavyNeutrino_trilepton_M-9.0_V-0.0002236067_mu_pre2017_massiveAndCKM_LO_slc6_amd64_gcc481_CMSSW_7_1_30_tarball.tar.xz