dataset,fragment,events,generator
BstarToGJ_M-6000_f-0p1_TuneCP5_13TeV-pythia8,genFragments/Generator/Pythia/BstarToGJ/BstarToGJ_M6000_f0p1_TuneCP5_13TeV_pythia8_cfi.py,50000,pythia8
BstarToGJ_M-6500_f-0p1_TuneCP5_13TeV-pythia8,genFragments/Generator/Pythia/BstarToGJ/BstarToGJ_M6500_f0p1_TuneCP5_13TeV_pythia8_cfi.py,50000,pythia8
BstarToGJ_M-7000_f-0p1_TuneCP5_13TeV-pythia8,genFragments/Generator/Pythia/BstarToGJ/BstarToGJ_M7000_f0p1_TuneCP5_13TeV_pythia8_cfi.py,50000,pythia8
