Dataset name,Events,Fragment,Generator,Gridpack location,Gridpack URL
HeavyNeutrino_trilepton_M-20_V-0p01_tau_LO_tauhFilter_TuneCUETP8M1_13TeV_madgraph_pythia8,500000,genFragments/Hadronizer/13TeV/Hadronizer_TuneCUETP8M1_13TeV_generic_LHE_pythia8_PSweights_tauhFilter_cff.py,madgraph,/eos/cms/store/user/ccaillol/gridpacks_HNL_taus_2016settings/HeavyNeutrino_trilepton_M-20_V-0p01_tau_LO_slc6_amd64_gcc700_CMSSW_10_2_24_patch1_tarball.tar.xz,https://github.com/cms-sw/genproductions/pull/2790
HeavyNeutrino_trilepton_M-30_V-0p01_tau_LO_tauhFilter_TuneCUETP8M1_13TeV_madgraph_pythia8,500000,genFragments/Hadronizer/13TeV/Hadronizer_TuneCUETP8M1_13TeV_generic_LHE_pythia8_PSweights_tauhFilter_cff.py,madgraph,/eos/cms/store/user/ccaillol/gridpacks_HNL_taus_2016settings/HeavyNeutrino_trilepton_M-30_V-0p01_tau_LO_slc6_amd64_gcc700_CMSSW_10_2_24_patch1_tarball.tar.xz,https://github.com/cms-sw/genproductions/pull/2790
HeavyNeutrino_trilepton_M-40_V-0p01_tau_LO_tauhFilter_TuneCUETP8M1_13TeV_madgraph_pythia8,500000,genFragments/Hadronizer/13TeV/Hadronizer_TuneCUETP8M1_13TeV_generic_LHE_pythia8_PSweights_tauhFilter_cff.py,madgraph,/eos/cms/store/user/ccaillol/gridpacks_HNL_taus_2016settings/HeavyNeutrino_trilepton_M-40_V-0p01_tau_LO_slc6_amd64_gcc700_CMSSW_10_2_24_patch1_tarball.tar.xz,https://github.com/cms-sw/genproductions/pull/2790
HeavyNeutrino_trilepton_M-50_V-0p01_tau_LO_tauhFilter_TuneCUETP8M1_13TeV_madgraph_pythia8,500000,genFragments/Hadronizer/13TeV/Hadronizer_TuneCUETP8M1_13TeV_generic_LHE_pythia8_PSweights_tauhFilter_cff.py,madgraph,/eos/cms/store/user/ccaillol/gridpacks_HNL_taus_2016settings/HeavyNeutrino_trilepton_M-50_V-0p01_tau_LO_slc6_amd64_gcc700_CMSSW_10_2_24_patch1_tarball.tar.xz,https://github.com/cms-sw/genproductions/pull/2790
HeavyNeutrino_trilepton_M-60_V-0p01_tau_LO_tauhFilter_TuneCUETP8M1_13TeV_madgraph_pythia8,500000,genFragments/Hadronizer/13TeV/Hadronizer_TuneCUETP8M1_13TeV_generic_LHE_pythia8_PSweights_tauhFilter_cff.py,madgraph,/eos/cms/store/user/ccaillol/gridpacks_HNL_taus_2016settings/HeavyNeutrino_trilepton_M-60_V-0p01_tau_LO_slc6_amd64_gcc700_CMSSW_10_2_24_patch1_tarball.tar.xz,https://github.com/cms-sw/genproductions/pull/2790
HeavyNeutrino_trilepton_M-70_V-0p01_tau_LO_tauhFilter_TuneCUETP8M1_13TeV_madgraph_pythia8,500000,genFragments/Hadronizer/13TeV/Hadronizer_TuneCUETP8M1_13TeV_generic_LHE_pythia8_PSweights_tauhFilter_cff.py,madgraph,/eos/cms/store/user/ccaillol/gridpacks_HNL_taus_2016settings/HeavyNeutrino_trilepton_M-70_V-0p01_tau_LO_slc6_amd64_gcc700_CMSSW_10_2_24_patch1_tarball.tar.xz,https://github.com/cms-sw/genproductions/pull/2790
HeavyNeutrino_trilepton_M-85_V-0p01_tau_NLO_tauhFilter_TuneCUETP8M1_13TeV_madgraph_pythia8,500000,genFragments/Hadronizer/13TeV/Hadronizer_TuneCUETP8M1_13TeV_aMCatNLO_PSweights_tauhFilter_cff.py,madgraph,/eos/cms/store/user/ccaillol/gridpacks_HNL_taus_2016settings/HeavyNeutrino_trilepton_M-85_V-0p01_tau_NLO_slc6_amd64_gcc700_CMSSW_10_2_24_patch1_tarball.tar.xz,https://github.com/cms-sw/genproductions/pull/2790
HeavyNeutrino_trilepton_M-100_V-0p01_tau_NLO_tauhFilter_TuneCUETP8M1_13TeV_madgraph_pythia8,500000,genFragments/Hadronizer/13TeV/Hadronizer_TuneCUETP8M1_13TeV_aMCatNLO_PSweights_tauhFilter_cff.py,madgraph,/eos/cms/store/user/ccaillol/gridpacks_HNL_taus_2016settings/HeavyNeutrino_trilepton_M-100_V-0p01_tau_NLO_slc6_amd64_gcc700_CMSSW_10_2_24_patch1_tarball.tar.xz,https://github.com/cms-sw/genproductions/pull/2790
HeavyNeutrino_trilepton_M-125_V-0p01_tau_NLO_tauhFilter_TuneCUETP8M1_13TeV_madgraph_pythia8,500000,genFragments/Hadronizer/13TeV/Hadronizer_TuneCUETP8M1_13TeV_aMCatNLO_PSweights_tauhFilter_cff.py,madgraph,/eos/cms/store/user/ccaillol/gridpacks_HNL_taus_2016settings/HeavyNeutrino_trilepton_M-125_V-0p01_tau_NLO_slc6_amd64_gcc700_CMSSW_10_2_24_patch1_tarball.tar.xz,https://github.com/cms-sw/genproductions/pull/2790
HeavyNeutrino_trilepton_M-150_V-0p01_tau_NLO_tauhFilter_TuneCUETP8M1_13TeV_madgraph_pythia8,500000,genFragments/Hadronizer/13TeV/Hadronizer_TuneCUETP8M1_13TeV_aMCatNLO_PSweights_tauhFilter_cff.py,madgraph,/eos/cms/store/user/ccaillol/gridpacks_HNL_taus_2016settings/HeavyNeutrino_trilepton_M-150_V-0p01_tau_NLO_slc6_amd64_gcc700_CMSSW_10_2_24_patch1_tarball.tar.xz,https://github.com/cms-sw/genproductions/pull/2790
HeavyNeutrino_trilepton_M-175_V-0p01_tau_NLO_tauhFilter_TuneCUETP8M1_13TeV_madgraph_pythia8,500000,genFragments/Hadronizer/13TeV/Hadronizer_TuneCUETP8M1_13TeV_aMCatNLO_PSweights_tauhFilter_cff.py,madgraph,/eos/cms/store/user/ccaillol/gridpacks_HNL_taus_2016settings/HeavyNeutrino_trilepton_M-175_V-0p01_tau_NLO_slc6_amd64_gcc700_CMSSW_10_2_24_patch1_tarball.tar.xz,https://github.com/cms-sw/genproductions/pull/2790
HeavyNeutrino_trilepton_M-200_V-0p01_tau_NLO_tauhFilter_TuneCUETP8M1_13TeV_madgraph_pythia8,300000,genFragments/Hadronizer/13TeV/Hadronizer_TuneCUETP8M1_13TeV_aMCatNLO_PSweights_tauhFilter_cff.py,madgraph,/eos/cms/store/user/ccaillol/gridpacks_HNL_taus_2016settings/HeavyNeutrino_trilepton_M-200_V-0p01_tau_NLO_slc6_amd64_gcc700_CMSSW_10_2_24_patch1_tarball.tar.xz,https://github.com/cms-sw/genproductions/pull/2790
HeavyNeutrino_trilepton_M-250_V-0p01_tau_NLO_tauhFilter_TuneCUETP8M1_13TeV_madgraph_pythia8,300000,genFragments/Hadronizer/13TeV/Hadronizer_TuneCUETP8M1_13TeV_aMCatNLO_PSweights_tauhFilter_cff.py,madgraph,/eos/cms/store/user/ccaillol/gridpacks_HNL_taus_2016settings/HeavyNeutrino_trilepton_M-250_V-0p01_tau_NLO_slc6_amd64_gcc700_CMSSW_10_2_24_patch1_tarball.tar.xz,https://github.com/cms-sw/genproductions/pull/2790
HeavyNeutrino_trilepton_M-300_V-0p01_tau_NLO_tauhFilter_TuneCUETP8M1_13TeV_madgraph_pythia8,300000,genFragments/Hadronizer/13TeV/Hadronizer_TuneCUETP8M1_13TeV_aMCatNLO_PSweights_tauhFilter_cff.py,madgraph,/eos/cms/store/user/ccaillol/gridpacks_HNL_taus_2016settings/HeavyNeutrino_trilepton_M-300_V-0p01_tau_NLO_slc6_amd64_gcc700_CMSSW_10_2_24_patch1_tarball.tar.xz,https://github.com/cms-sw/genproductions/pull/2790
HeavyNeutrino_trilepton_M-350_V-0p01_tau_NLO_tauhFilter_TuneCUETP8M1_13TeV_madgraph_pythia8,300000,genFragments/Hadronizer/13TeV/Hadronizer_TuneCUETP8M1_13TeV_aMCatNLO_PSweights_tauhFilter_cff.py,madgraph,/eos/cms/store/user/ccaillol/gridpacks_HNL_taus_2016settings/HeavyNeutrino_trilepton_M-350_V-0p01_tau_NLO_slc6_amd64_gcc700_CMSSW_10_2_24_patch1_tarball.tar.xz,https://github.com/cms-sw/genproductions/pull/2790
HeavyNeutrino_trilepton_M-400_V-0p01_tau_NLO_tauhFilter_TuneCUETP8M1_13TeV_madgraph_pythia8,300000,genFragments/Hadronizer/13TeV/Hadronizer_TuneCUETP8M1_13TeV_aMCatNLO_PSweights_tauhFilter_cff.py,madgraph,/eos/cms/store/user/ccaillol/gridpacks_HNL_taus_2016settings/HeavyNeutrino_trilepton_M-400_V-0p01_tau_NLO_slc6_amd64_gcc700_CMSSW_10_2_24_patch1_tarball.tar.xz,https://github.com/cms-sw/genproductions/pull/2790
HeavyNeutrino_trilepton_M-450_V-0p01_tau_NLO_tauhFilter_TuneCUETP8M1_13TeV_madgraph_pythia8,300000,genFragments/Hadronizer/13TeV/Hadronizer_TuneCUETP8M1_13TeV_aMCatNLO_PSweights_tauhFilter_cff.py,madgraph,/eos/cms/store/user/ccaillol/gridpacks_HNL_taus_2016settings/HeavyNeutrino_trilepton_M-450_V-0p01_tau_NLO_slc6_amd64_gcc700_CMSSW_10_2_24_patch1_tarball.tar.xz,https://github.com/cms-sw/genproductions/pull/2790
HeavyNeutrino_trilepton_M-500_V-0p01_tau_NLO_tauhFilter_TuneCUETP8M1_13TeV_madgraph_pythia8,300000,genFragments/Hadronizer/13TeV/Hadronizer_TuneCUETP8M1_13TeV_aMCatNLO_PSweights_tauhFilter_cff.py,madgraph,/eos/cms/store/user/ccaillol/gridpacks_HNL_taus_2016settings/HeavyNeutrino_trilepton_M-500_V-0p01_tau_NLO_slc6_amd64_gcc700_CMSSW_10_2_24_patch1_tarball.tar.xz,https://github.com/cms-sw/genproductions/pull/2790
HeavyNeutrino_trilepton_M-600_V-0p01_tau_NLO_tauhFilter_TuneCUETP8M1_13TeV_madgraph_pythia8,300000,genFragments/Hadronizer/13TeV/Hadronizer_TuneCUETP8M1_13TeV_aMCatNLO_PSweights_tauhFilter_cff.py,madgraph,/eos/cms/store/user/ccaillol/gridpacks_HNL_taus_2016settings/HeavyNeutrino_trilepton_M-600_V-0p01_tau_NLO_slc6_amd64_gcc700_CMSSW_10_2_24_patch1_tarball.tar.xz,https://github.com/cms-sw/genproductions/pull/2790
HeavyNeutrino_trilepton_M-700_V-0p01_tau_NLO_tauhFilter_TuneCUETP8M1_13TeV_madgraph_pythia8,300000,genFragments/Hadronizer/13TeV/Hadronizer_TuneCUETP8M1_13TeV_aMCatNLO_PSweights_tauhFilter_cff.py,madgraph,/eos/cms/store/user/ccaillol/gridpacks_HNL_taus_2016settings/HeavyNeutrino_trilepton_M-700_V-0p01_tau_NLO_slc6_amd64_gcc700_CMSSW_10_2_24_patch1_tarball.tar.xz,https://github.com/cms-sw/genproductions/pull/2790
HeavyNeutrino_trilepton_M-800_V-0p01_tau_NLO_tauhFilter_TuneCUETP8M1_13TeV_madgraph_pythia8,300000,genFragments/Hadronizer/13TeV/Hadronizer_TuneCUETP8M1_13TeV_aMCatNLO_PSweights_tauhFilter_cff.py,madgraph,/eos/cms/store/user/ccaillol/gridpacks_HNL_taus_2016settings/HeavyNeutrino_trilepton_M-800_V-0p01_tau_NLO_slc6_amd64_gcc700_CMSSW_10_2_24_patch1_tarball.tar.xz,https://github.com/cms-sw/genproductions/pull/2790
HeavyNeutrino_trilepton_M-900_V-0p01_tau_NLO_tauhFilter_TuneCUETP8M1_13TeV_madgraph_pythia8,300000,genFragments/Hadronizer/13TeV/Hadronizer_TuneCUETP8M1_13TeV_aMCatNLO_PSweights_tauhFilter_cff.py,madgraph,/eos/cms/store/user/ccaillol/gridpacks_HNL_taus_2016settings/HeavyNeutrino_trilepton_M-900_V-0p01_tau_NLO_slc6_amd64_gcc700_CMSSW_10_2_24_patch1_tarball.tar.xz,https://github.com/cms-sw/genproductions/pull/2790
HeavyNeutrino_trilepton_M-1000_V-0p01_tau_NLO_tauhFilter_TuneCUETP8M1_13TeV_madgraph_pythia8,300000,genFragments/Hadronizer/13TeV/Hadronizer_TuneCUETP8M1_13TeV_aMCatNLO_PSweights_tauhFilter_cff.py,madgraph,/eos/cms/store/user/ccaillol/gridpacks_HNL_taus_2016settings/HeavyNeutrino_trilepton_M-1000_V-0p01_tau_NLO_slc6_amd64_gcc700_CMSSW_10_2_24_patch1_tarball.tar.xz,https://github.com/cms-sw/genproductions/pull/2790
