Dataset Name,Total Events,Generator Fragment Name,Generator,Gridpack Location,Gridpack Cards URL
MonoHtoZZ_ZpBaryonic_MZp100_MChi1_TuneCP2_13TeV-madgraph-pythia8,100000,genFragments/Hadronizer/13TeV/Hadronizer_TuneCP2_13TeV_HZZ4l_pythia8_PSweights_cff.py,Madgraph,/cvmfs/cms.cern.ch/phys_generator/gridpacks/slc6_amd64_gcc630/13TeV/madgraph/V5_2.6.5/monoHiggs/ZpBaryonic/v1/ZpBaryonic_MZp100_MChi1_slc6_amd64_gcc630_CMSSW_9_3_16_tarball.tar.xz,https://github.com/cms-sw/genproductions/tree/master/bin/MadGraph5_aMCatNLO/cards/production/2017/13TeV/monoHiggs/ZpBaryonic
MonoHtoZZ_ZpBaryonic_MZp100_MChi50_TuneCP2_13TeV-madgraph-pythia8,100000,genFragments/Hadronizer/13TeV/Hadronizer_TuneCP2_13TeV_HZZ4l_pythia8_PSweights_cff.py,Madgraph,/cvmfs/cms.cern.ch/phys_generator/gridpacks/slc6_amd64_gcc630/13TeV/madgraph/V5_2.6.5/monoHiggs/ZpBaryonic/v1/ZpBaryonic_MZp100_MChi50_slc6_amd64_gcc630_CMSSW_9_3_16_tarball.tar.xz,https://github.com/cms-sw/genproductions/tree/master/bin/MadGraph5_aMCatNLO/cards/production/2017/13TeV/monoHiggs/ZpBaryonic
MonoHtoZZ_ZpBaryonic_MZp200_MChi1_TuneCP2_13TeV-madgraph-pythia8,100000,genFragments/Hadronizer/13TeV/Hadronizer_TuneCP2_13TeV_HZZ4l_pythia8_PSweights_cff.py,Madgraph,/cvmfs/cms.cern.ch/phys_generator/gridpacks/slc6_amd64_gcc630/13TeV/madgraph/V5_2.6.5/monoHiggs/ZpBaryonic/v1/ZpBaryonic_MZp200_MChi1_slc6_amd64_gcc630_CMSSW_9_3_16_tarball.tar.xz,https://github.com/cms-sw/genproductions/tree/master/bin/MadGraph5_aMCatNLO/cards/production/2017/13TeV/monoHiggs/ZpBaryonic
MonoHtoZZ_ZpBaryonic_MZp200_MChi50_TuneCP2_13TeV-madgraph-pythia8,100000,genFragments/Hadronizer/13TeV/Hadronizer_TuneCP2_13TeV_HZZ4l_pythia8_PSweights_cff.py,Madgraph,/cvmfs/cms.cern.ch/phys_generator/gridpacks/slc6_amd64_gcc630/13TeV/madgraph/V5_2.6.5/monoHiggs/ZpBaryonic/v1/ZpBaryonic_MZp200_MChi50_slc6_amd64_gcc630_CMSSW_9_3_16_tarball.tar.xz,https://github.com/cms-sw/genproductions/tree/master/bin/MadGraph5_aMCatNLO/cards/production/2017/13TeV/monoHiggs/ZpBaryonic
MonoHtoZZ_ZpBaryonic_MZp200_MChi100_TuneCP2_13TeV-madgraph-pythia8,100000,genFragments/Hadronizer/13TeV/Hadronizer_TuneCP2_13TeV_HZZ4l_pythia8_PSweights_cff.py,Madgraph,/cvmfs/cms.cern.ch/phys_generator/gridpacks/slc6_amd64_gcc630/13TeV/madgraph/V5_2.6.5/monoHiggs/ZpBaryonic/v1/ZpBaryonic_MZp200_MChi100_slc6_amd64_gcc630_CMSSW_9_3_16_tarball.tar.xz,https://github.com/cms-sw/genproductions/tree/master/bin/MadGraph5_aMCatNLO/cards/production/2017/13TeV/monoHiggs/ZpBaryonic
MonoHtoZZ_ZpBaryonic_MZp200_MChi150_TuneCP2_13TeV-madgraph-pythia8,100000,genFragments/Hadronizer/13TeV/Hadronizer_TuneCP2_13TeV_HZZ4l_pythia8_PSweights_cff.py,Madgraph,/cvmfs/cms.cern.ch/phys_generator/gridpacks/slc6_amd64_gcc630/13TeV/madgraph/V5_2.6.5/monoHiggs/ZpBaryonic/v1/ZpBaryonic_MZp200_MChi150_slc6_amd64_gcc630_CMSSW_9_3_16_tarball.tar.xz,https://github.com/cms-sw/genproductions/tree/master/bin/MadGraph5_aMCatNLO/cards/production/2017/13TeV/monoHiggs/ZpBaryonic
MonoHtoZZ_ZpBaryonic_MZp300_MChi150_TuneCP2_13TeV-madgraph-pythia8,100000,genFragments/Hadronizer/13TeV/Hadronizer_TuneCP2_13TeV_HZZ4l_pythia8_PSweights_cff.py,Madgraph,/cvmfs/cms.cern.ch/phys_generator/gridpacks/slc6_amd64_gcc630/13TeV/madgraph/V5_2.6.5/monoHiggs/ZpBaryonic/v1/ZpBaryonic_MZp300_MChi150_slc6_amd64_gcc630_CMSSW_9_3_16_tarball.tar.xz,https://github.com/cms-sw/genproductions/tree/master/bin/MadGraph5_aMCatNLO/cards/production/2017/13TeV/monoHiggs/ZpBaryonic
MonoHtoZZ_ZpBaryonic_MZp350_MChi50_TuneCP2_13TeV-madgraph-pythia8,100000,genFragments/Hadronizer/13TeV/Hadronizer_TuneCP2_13TeV_HZZ4l_pythia8_PSweights_cff.py,Madgraph,/cvmfs/cms.cern.ch/phys_generator/gridpacks/slc6_amd64_gcc630/13TeV/madgraph/V5_2.6.5/monoHiggs/ZpBaryonic/v1/ZpBaryonic_MZp350_MChi50_slc6_amd64_gcc630_CMSSW_9_3_16_tarball.tar.xz,https://github.com/cms-sw/genproductions/tree/master/bin/MadGraph5_aMCatNLO/cards/production/2017/13TeV/monoHiggs/ZpBaryonic
MonoHToZZ_ZpBaryonic_MZp500_MChi1_TuneCP2_13TeV-madgraph-pythia8,100000,genFragments/Hadronizer/13TeV/Hadronizer_TuneCP2_13TeV_HZZ4l_pythia8_PSweights_cff.py,Madgraph,/cvmfs/cms.cern.ch/phys_generator/gridpacks/slc6_amd64_gcc630/13TeV/madgraph/V5_2.6.5/monoHiggs/ZpBaryonic/v1/ZpBaryonic_MZp500_MChi1_slc6_amd64_gcc630_CMSSW_9_3_16_tarball.tar.xz,https://github.com/cms-sw/genproductions/tree/master/bin/MadGraph5_aMCatNLO/cards/production/2017/13TeV/monoHiggs/ZpBaryonic
MonoHToZZ_ZpBaryonic_MZp500_MChi200_TuneCP2_13TeV-madgraph-pythia8,100000,genFragments/Hadronizer/13TeV/Hadronizer_TuneCP2_13TeV_HZZ4l_pythia8_PSweights_cff.py,Madgraph,/cvmfs/cms.cern.ch/phys_generator/gridpacks/slc6_amd64_gcc630/13TeV/madgraph/V5_2.6.5/monoHiggs/ZpBaryonic/v1/ZpBaryonic_MZp500_MChi200_slc6_amd64_gcc630_CMSSW_9_3_16_tarball.tar.xz,https://github.com/cms-sw/genproductions/tree/master/bin/MadGraph5_aMCatNLO/cards/production/2017/13TeV/monoHiggs/ZpBaryonic
MonoHToZZ_ZpBaryonic_MZp500_MChi400_TuneCP2_13TeV-madgraph-pythia8,100000,genFragments/Hadronizer/13TeV/Hadronizer_TuneCP2_13TeV_HZZ4l_pythia8_PSweights_cff.py,Madgraph,/cvmfs/cms.cern.ch/phys_generator/gridpacks/slc6_amd64_gcc630/13TeV/madgraph/V5_2.6.5/monoHiggs/ZpBaryonic/v1/ZpBaryonic_MZp500_MChi400_slc6_amd64_gcc630_CMSSW_9_3_16_tarball.tar.xz,https://github.com/cms-sw/genproductions/tree/master/bin/MadGraph5_aMCatNLO/cards/production/2017/13TeV/monoHiggs/ZpBaryonic