dataset,fragment,events,generator,gridpack,time per event,size per event,match efficiency,filter efficiency
ZpMuMu_MZp-0p0005_Df-0p0010_TuneCP5_13TeV-madgraph-pythia8,genFragments/Hadronizer/13TeV/Hadronizer_TuneCP5_13TeV_generic_LHE_pythia8_cff.py,1000000,madgraph,/afs/cern.ch/user/y/yayao/public/darkphotonDimuon_MZp-0p5MeV_Df-0p0010_slc7_amd64_gcc700_CMSSW_10_6_19_tarball.tar.xz,3.3064025,109.1865,1.0,1.0
ZpMuMu_MZp-0p0005_Df-0p0016_TuneCP5_13TeV-madgraph-pythia8,genFragments/Hadronizer/13TeV/Hadronizer_TuneCP5_13TeV_generic_LHE_pythia8_cff.py,1000000,madgraph,/afs/cern.ch/user/y/yayao/public/darkphotonDimuon_MZp-0p5MeV_Df-0p0016_slc7_amd64_gcc700_CMSSW_10_6_19_tarball.tar.xz,3.5639575,108.3136,1.0,1.0
ZpMuMu_MZp-0p0005_Df-0p0025_TuneCP5_13TeV-madgraph-pythia8,genFragments/Hadronizer/13TeV/Hadronizer_TuneCP5_13TeV_generic_LHE_pythia8_cff.py,750000,madgraph,/afs/cern.ch/user/y/yayao/public/darkphotonDimuon_MZp-0p5MeV_Df-0p0025_slc7_amd64_gcc700_CMSSW_10_6_19_tarball.tar.xz,3.6809275,109.8516,1.0,1.0
ZpMuMu_MZp-0p0005_Df-0p0040_TuneCP5_13TeV-madgraph-pythia8,genFragments/Hadronizer/13TeV/Hadronizer_TuneCP5_13TeV_generic_LHE_pythia8_cff.py,500000,madgraph,/afs/cern.ch/user/y/yayao/public/darkphotonDimuon_MZp-0p5MeV_Df-0p0040_slc7_amd64_gcc700_CMSSW_10_6_19_tarball.tar.xz,3.9518525,110.8971,1.0,1.0
ZpMuMu_MZp-0p0005_Df-0p0063_TuneCP5_13TeV-madgraph-pythia8,genFragments/Hadronizer/13TeV/Hadronizer_TuneCP5_13TeV_generic_LHE_pythia8_cff.py,200000,madgraph,/afs/cern.ch/user/y/yayao/public/darkphotonDimuon_MZp-0p5MeV_Df-0p0063_slc7_amd64_gcc700_CMSSW_10_6_19_tarball.tar.xz,3.0979025,108.4154,1.0,1.0
ZpMuMu_MZp-0p0005_Df-0p0100_TuneCP5_13TeV-madgraph-pythia8,genFragments/Hadronizer/13TeV/Hadronizer_TuneCP5_13TeV_generic_LHE_pythia8_cff.py,200000,madgraph,/afs/cern.ch/user/y/yayao/public/darkphotonDimuon_MZp-0p5MeV_Df-0p0100_slc7_amd64_gcc700_CMSSW_10_6_19_tarball.tar.xz,4.0710999999999995,107.1242,1.0,1.0
ZpMuMu_MZp-0p0005_Df-0p0158_TuneCP5_13TeV-madgraph-pythia8,genFragments/Hadronizer/13TeV/Hadronizer_TuneCP5_13TeV_generic_LHE_pythia8_cff.py,200000,madgraph,/afs/cern.ch/user/y/yayao/public/darkphotonDimuon_MZp-0p5MeV_Df-0p0158_slc7_amd64_gcc700_CMSSW_10_6_19_tarball.tar.xz,3.453385,109.7139,1.0,1.0
ZpMuMu_MZp-0p0005_Df-0p0251_TuneCP5_13TeV-madgraph-pythia8,genFragments/Hadronizer/13TeV/Hadronizer_TuneCP5_13TeV_generic_LHE_pythia8_cff.py,200000,madgraph,/afs/cern.ch/user/y/yayao/public/darkphotonDimuon_MZp-0p5MeV_Df-0p0251_slc7_amd64_gcc700_CMSSW_10_6_19_tarball.tar.xz,3.3363975,108.7452,1.0,1.0
ZpMuMu_MZp-0p0005_Df-0p0398_TuneCP5_13TeV-madgraph-pythia8,genFragments/Hadronizer/13TeV/Hadronizer_TuneCP5_13TeV_generic_LHE_pythia8_cff.py,200000,madgraph,/afs/cern.ch/user/y/yayao/public/darkphotonDimuon_MZp-0p5MeV_Df-0p0398_slc7_amd64_gcc700_CMSSW_10_6_19_tarball.tar.xz,3.5532275,108.6632,1.0,1.0
ZpMuMu_MZp-0p0005_Df-0p0631_TuneCP5_13TeV-madgraph-pythia8,genFragments/Hadronizer/13TeV/Hadronizer_TuneCP5_13TeV_generic_LHE_pythia8_cff.py,500000,madgraph,/afs/cern.ch/user/y/yayao/public/darkphotonDimuon_MZp-0p5MeV_Df-0p0631_slc7_amd64_gcc700_CMSSW_10_6_19_tarball.tar.xz,3.770775,107.2762,1.0,1.0
ZpMuMu_MZp-0p0005_Df-0p1000_TuneCP5_13TeV-madgraph-pythia8,genFragments/Hadronizer/13TeV/Hadronizer_TuneCP5_13TeV_generic_LHE_pythia8_cff.py,500000,madgraph,/afs/cern.ch/user/y/yayao/public/darkphotonDimuon_MZp-0p5MeV_Df-0p1000_slc7_amd64_gcc700_CMSSW_10_6_19_tarball.tar.xz,3.5692225,107.6766,1.0,1.0
