dataset,fragment,events,generator
BstarToGJ_M-5500_f-0p1_TuneCUEP8M1_13TeV-pythia8,genFragments/Generator/Pythia/BstarToGJ/2016/BstarToGJ_M5500_f0p1_TuneCUETP8M1_13TeV_pythia8_cfi.py,50000,pythia8
BstarToGJ_M-6000_f-0p1_TuneCUEP8M1_13TeV-pythia8,genFragments/Generator/Pythia/BstarToGJ/2016/BstarToGJ_M6000_f0p1_TuneCUETP8M1_13TeV_pythia8_cfi.py,50000,pythia8
BstarToGJ_M-6500_f-0p1_TuneCUEP8M1_13TeV-pythia8,genFragments/Generator/Pythia/BstarToGJ/2016/BstarToGJ_M6500_f0p1_TuneCUETP8M1_13TeV_pythia8_cfi.py,50000,pythia8
BstarToGJ_M-7000_f-0p1_TuneCUEP8M1_13TeV-pythia8,genFragments/Generator/Pythia/BstarToGJ/2016/BstarToGJ_M7000_f0p1_TuneCUETP8M1_13TeV_pythia8_cfi.py,50000,pythia8
BstarToGJ_M-5500_f-0p5_TuneCUEP8M1_13TeV-pythia8,genFragments/Generator/Pythia/BstarToGJ/2016/BstarToGJ_M5500_f0p5_TuneCUETP8M1_13TeV_pythia8_cfi.py,50000,pythia8
BstarToGJ_M-6000_f-0p5_TuneCUEP8M1_13TeV-pythia8,genFragments/Generator/Pythia/BstarToGJ/2016/BstarToGJ_M6000_f0p5_TuneCUETP8M1_13TeV_pythia8_cfi.py,50000,pythia8
BstarToGJ_M-6500_f-0p5_TuneCUEP8M1_13TeV-pythia8,genFragments/Generator/Pythia/BstarToGJ/2016/BstarToGJ_M6500_f0p5_TuneCUETP8M1_13TeV_pythia8_cfi.py,50000,pythia8
BstarToGJ_M-7000_f-0p5_TuneCUEP8M1_13TeV-pythia8,genFragments/Generator/Pythia/BstarToGJ/2016/BstarToGJ_M7000_f0p5_TuneCUETP8M1_13TeV_pythia8_cfi.py,50000,pythia8
BstarToGJ_M-5500_f-1p0_TuneCUEP8M1_13TeV-pythia8,genFragments/Generator/Pythia/BstarToGJ/2016/BstarToGJ_M5500_f1p0_TuneCUETP8M1_13TeV_pythia8_cfi.py,50000,pythia8
BstarToGJ_M-6000_f-1p0_TuneCUEP8M1_13TeV-pythia8,genFragments/Generator/Pythia/BstarToGJ/2016/BstarToGJ_M6000_f1p0_TuneCUETP8M1_13TeV_pythia8_cfi.py,50000,pythia8
BstarToGJ_M-6500_f-1p0_TuneCUEP8M1_13TeV-pythia8,genFragments/Generator/Pythia/BstarToGJ/2016/BstarToGJ_M6500_f1p0_TuneCUETP8M1_13TeV_pythia8_cfi.py,50000,pythia8
BstarToGJ_M-7000_f-1p0_TuneCUEP8M1_13TeV-pythia8,genFragments/Generator/Pythia/BstarToGJ/2016/BstarToGJ_M7000_f1p0_TuneCUETP8M1_13TeV_pythia8_cfi.py,50000,pythia8
