dataset,fragment,events,generator,time per event,size per event,match efficiency,filter efficiency
EstarToEQQ_CIDecay_L10000_M-250_TuneCP5_13TeV-pythia8,genFragments/Generator/Pythia/EstarToEQQ/EstarToEQQ_CIDecay_L10000_M250_TuneCP5_13TeV_Pythia8_cff.py,30000,pythia8,0.183014,97.8628,1.0,1.0
EstarToEQQ_CIDecay_L10000_M-500_TuneCP5_13TeV-pythia8,genFragments/Generator/Pythia/EstarToEQQ/EstarToEQQ_CIDecay_L10000_M500_TuneCP5_13TeV_Pythia8_cff.py,30000,pythia8,0.181969,98.1716,1.0,1.0
EstarToEQQ_CIDecay_L10000_M-750_TuneCP5_13TeV-pythia8,genFragments/Generator/Pythia/EstarToEQQ/EstarToEQQ_CIDecay_L10000_M750_TuneCP5_13TeV_Pythia8_cff.py,30000,pythia8,0.237002,94.9364,1.0,1.0
EstarToEQQ_CIDecay_L10000_M-1000_TuneCP5_13TeV-pythia8,genFragments/Generator/Pythia/EstarToEQQ/EstarToEQQ_CIDecay_L10000_M1000_TuneCP5_13TeV_Pythia8_cff.py,30000,pythia8,0.279268,100.3601,1.0,1.0
EstarToEQQ_CIDecay_L10000_M-1500_TuneCP5_13TeV-pythia8,genFragments/Generator/Pythia/EstarToEQQ/EstarToEQQ_CIDecay_L10000_M1500_TuneCP5_13TeV_Pythia8_cff.py,30000,pythia8,0.422709,99.3574,1.0,1.0
EstarToEQQ_CIDecay_L10000_M-2000_TuneCP5_13TeV-pythia8,genFragments/Generator/Pythia/EstarToEQQ/EstarToEQQ_CIDecay_L10000_M2000_TuneCP5_13TeV_Pythia8_cff.py,30000,pythia8,0.37471299999999996,98.7346,1.0,1.0
EstarToEQQ_CIDecay_L10000_M-2500_TuneCP5_13TeV-pythia8,genFragments/Generator/Pythia/EstarToEQQ/EstarToEQQ_CIDecay_L10000_M2500_TuneCP5_13TeV_Pythia8_cff.py,30000,pythia8,0.33279,96.8857,1.0,1.0
EstarToEQQ_CIDecay_L10000_M-3000_TuneCP5_13TeV-pythia8,genFragments/Generator/Pythia/EstarToEQQ/EstarToEQQ_CIDecay_L10000_M3000_TuneCP5_13TeV_Pythia8_cff.py,30000,pythia8,0.18335630000000003,97.9968,1.0,1.0
EstarToEQQ_CIDecay_L10000_M-3500_TuneCP5_13TeV-pythia8,genFragments/Generator/Pythia/EstarToEQQ/EstarToEQQ_CIDecay_L10000_M3500_TuneCP5_13TeV_Pythia8_cff.py,30000,pythia8,0.1634178,89.7161,1.0,1.0
EstarToEQQ_CIDecay_L10000_M-4000_TuneCP5_13TeV-pythia8,genFragments/Generator/Pythia/EstarToEQQ/EstarToEQQ_CIDecay_L10000_M4000_TuneCP5_13TeV_Pythia8_cff.py,30000,pythia8,0.320453,89.0476,1.0,1.0
EstarToEQQ_CIDecay_L10000_M-4500_TuneCP5_13TeV-pythia8,genFragments/Generator/Pythia/EstarToEQQ/EstarToEQQ_CIDecay_L10000_M4500_TuneCP5_13TeV_Pythia8_cff.py,30000,pythia8,0.28507899999999997,88.4217,1.0,1.0
EstarToEQQ_CIDecay_L10000_M-5000_TuneCP5_13TeV-pythia8,genFragments/Generator/Pythia/EstarToEQQ/EstarToEQQ_CIDecay_L10000_M5000_TuneCP5_13TeV_Pythia8_cff.py,30000,pythia8,0.149452,85.974,1.0,1.0
EstarToEQQ_CIDecay_L10000_M-5500_TuneCP5_13TeV-pythia8,genFragments/Generator/Pythia/EstarToEQQ/EstarToEQQ_CIDecay_L10000_M5500_TuneCP5_13TeV_Pythia8_cff.py,30000,pythia8,0.272253,82.9896,1.0,1.0
EstarToEQQ_CIDecay_L10000_M-6000_TuneCP5_13TeV-pythia8,genFragments/Generator/Pythia/EstarToEQQ/EstarToEQQ_CIDecay_L10000_M6000_TuneCP5_13TeV_Pythia8_cff.py,30000,pythia8,0.251815,82.6187,1.0,1.0
EstarToEQQ_CIDecay_L10000_M-6500_TuneCP5_13TeV-pythia8,genFragments/Generator/Pythia/EstarToEQQ/EstarToEQQ_CIDecay_L10000_M6500_TuneCP5_13TeV_Pythia8_cff.py,30000,pythia8,0.24847999999999998,81.3457,1.0,1.0
EstarToEQQ_CIDecay_L10000_M-7000_TuneCP5_13TeV-pythia8,genFragments/Generator/Pythia/EstarToEQQ/EstarToEQQ_CIDecay_L10000_M7000_TuneCP5_13TeV_Pythia8_cff.py,30000,pythia8,0.27195199999999997,81.4667,1.0,1.0
MustarToMuQQ_CIDecay_L10000_M-250_TuneCP5_13TeV-pythia8,genFragments/Generator/Pythia/MustarToMuQQ/MustarToMuQQ_CIDecay_L10000_M250_TuneCP5_13TeV_Pythia8_cff.py,30000,pythia8,0.34521399999999997,96.3309,1.0,1.0
MustarToMuQQ_CIDecay_L10000_M-500_TuneCP5_13TeV-pythia8,genFragments/Generator/Pythia/MustarToMuQQ/MustarToMuQQ_CIDecay_L10000_M500_TuneCP5_13TeV_Pythia8_cff.py,30000,pythia8,0.340496,97.0072,1.0,1.0
MustarToMuQQ_CIDecay_L10000_M-750_TuneCP5_13TeV-pythia8,genFragments/Generator/Pythia/MustarToMuQQ/MustarToMuQQ_CIDecay_L10000_M750_TuneCP5_13TeV_Pythia8_cff.py,30000,pythia8,0.341501,99.0537,1.0,1.0
MustarToMuQQ_CIDecay_L10000_M-1000_TuneCP5_13TeV-pythia8,genFragments/Generator/Pythia/MustarToMuQQ/MustarToMuQQ_CIDecay_L10000_M1000_TuneCP5_13TeV_Pythia8_cff.py,30000,pythia8,0.386922,101.1728,1.0,1.0
MustarToMuQQ_CIDecay_L10000_M-1500_TuneCP5_13TeV-pythia8,genFragments/Generator/Pythia/MustarToMuQQ/MustarToMuQQ_CIDecay_L10000_M1500_TuneCP5_13TeV_Pythia8_cff.py,30000,pythia8,0.337005,99.4682,1.0,1.0
MustarToMuQQ_CIDecay_L10000_M-2000_TuneCP5_13TeV-pythia8,genFragments/Generator/Pythia/MustarToMuQQ/MustarToMuQQ_CIDecay_L10000_M2000_TuneCP5_13TeV_Pythia8_cff.py,30000,pythia8,0.311239,96.5595,1.0,1.0
MustarToMuQQ_CIDecay_L10000_M-2500_TuneCP5_13TeV-pythia8,genFragments/Generator/Pythia/MustarToMuQQ/MustarToMuQQ_CIDecay_L10000_M2500_TuneCP5_13TeV_Pythia8_cff.py,30000,pythia8,0.31304,96.0335,1.0,1.0
MustarToMuQQ_CIDecay_L10000_M-3000_TuneCP5_13TeV-pythia8,genFragments/Generator/Pythia/MustarToMuQQ/MustarToMuQQ_CIDecay_L10000_M3000_TuneCP5_13TeV_Pythia8_cff.py,30000,pythia8,0.296802,92.1997,1.0,1.0
MustarToMuQQ_CIDecay_L10000_M-3500_TuneCP5_13TeV-pythia8,genFragments/Generator/Pythia/MustarToMuQQ/MustarToMuQQ_CIDecay_L10000_M3500_TuneCP5_13TeV_Pythia8_cff.py,30000,pythia8,0.513489,91.2912,1.0,1.0
MustarToMuQQ_CIDecay_L10000_M-4000_TuneCP5_13TeV-pythia8,genFragments/Generator/Pythia/MustarToMuQQ/MustarToMuQQ_CIDecay_L10000_M4000_TuneCP5_13TeV_Pythia8_cff.py,30000,pythia8,0.277088,89.1308,1.0,1.0
MustarToMuQQ_CIDecay_L10000_M-4500_TuneCP5_13TeV-pythia8,genFragments/Generator/Pythia/MustarToMuQQ/MustarToMuQQ_CIDecay_L10000_M4500_TuneCP5_13TeV_Pythia8_cff.py,30000,pythia8,0.519025,88.4752,1.0,1.0
MustarToMuQQ_CIDecay_L10000_M-5000_TuneCP5_13TeV-pythia8,genFragments/Generator/Pythia/MustarToMuQQ/MustarToMuQQ_CIDecay_L10000_M5000_TuneCP5_13TeV_Pythia8_cff.py,30000,pythia8,0.292919,86.1087,1.0,1.0
MustarToMuQQ_CIDecay_L10000_M-5500_TuneCP5_13TeV-pythia8,genFragments/Generator/Pythia/MustarToMuQQ/MustarToMuQQ_CIDecay_L10000_M5500_TuneCP5_13TeV_Pythia8_cff.py,30000,pythia8,0.1274636,82.1612,1.0,1.0
MustarToMuQQ_CIDecay_L10000_M-6000_TuneCP5_13TeV-pythia8,genFragments/Generator/Pythia/MustarToMuQQ/MustarToMuQQ_CIDecay_L10000_M6000_TuneCP5_13TeV_Pythia8_cff.py,30000,pythia8,0.450472,85.1392,1.0,1.0
MustarToMuQQ_CIDecay_L10000_M-6500_TuneCP5_13TeV-pythia8,genFragments/Generator/Pythia/MustarToMuQQ/MustarToMuQQ_CIDecay_L10000_M6500_TuneCP5_13TeV_Pythia8_cff.py,30000,pythia8,0.521949,81.1276,1.0,1.0
MustarToMuQQ_CIDecay_L10000_M-7000_TuneCP5_13TeV-pythia8,genFragments/Generator/Pythia/MustarToMuQQ/MustarToMuQQ_CIDecay_L10000_M7000_TuneCP5_13TeV_Pythia8_cff.py,30000,pythia8,0.562956,84.4847,1.0,1.0
