dataset,fragment,events,generator,gridpack,time per event,size per event,match efficiency,filter efficiency
DYTypeIHeavyN-SFmix_Dilepton_NLO_MN85_TuneCP5_13TeV-madgraph-pythia8,genFragments/Hadronizer/13TeV/Hadronizer_TuneCP5_13TeV_aMCatNLO_0p_LHE_pythia8_LepPtFilter_cff.py,200000,madgraph,/cvmfs/cms.cern.ch/phys_generator/gridpacks/2017/13TeV/madgraph/V5_2.6.5/DileptonTypeIHeavyN/DYTypeI_NLO_SF_M85_slc6_amd64_gcc630_CMSSW_9_3_16_tarball.tar.xz,5.3281337078651685,137.7744,1.0,0.445
DYTypeIHeavyN-SFmix_Dilepton_NLO_MN90_TuneCP5_13TeV-madgraph-pythia8,genFragments/Hadronizer/13TeV/Hadronizer_TuneCP5_13TeV_aMCatNLO_0p_LHE_pythia8_LepPtFilter_cff.py,200000,madgraph,/cvmfs/cms.cern.ch/phys_generator/gridpacks/2017/13TeV/madgraph/V5_2.6.5/DileptonTypeIHeavyN/DYTypeI_NLO_SF_M90_slc6_amd64_gcc630_CMSSW_9_3_16_tarball.tar.xz,4.300818506998445,130.0037,1.0,0.643
DYTypeIHeavyN-SFmix_Dilepton_NLO_MN95_TuneCP5_13TeV-madgraph-pythia8,genFragments/Hadronizer/13TeV/Hadronizer_TuneCP5_13TeV_aMCatNLO_0p_LHE_pythia8_LepPtFilter_cff.py,200000,madgraph,/cvmfs/cms.cern.ch/phys_generator/gridpacks/2017/13TeV/madgraph/V5_2.6.5/DileptonTypeIHeavyN/DYTypeI_NLO_SF_M95_slc6_amd64_gcc630_CMSSW_9_3_16_tarball.tar.xz,3.4514403973509937,123.6844,1.0,0.755
DYTypeIHeavyN-SFmix_Dilepton_NLO_MN100_TuneCP5_13TeV-madgraph-pythia8,genFragments/Hadronizer/13TeV/Hadronizer_TuneCP5_13TeV_aMCatNLO_0p_LHE_pythia8_cff.py,100000,madgraph,/cvmfs/cms.cern.ch/phys_generator/gridpacks/2017/13TeV/madgraph/V5_2.6.5/DileptonTypeIHeavyN/DYTypeI_NLO_SF_M100_slc6_amd64_gcc630_CMSSW_9_3_16_tarball.tar.xz,3.3730599999999997,118.4491,1.0,1.0
DYTypeIHeavyN-SFmix_Dilepton_NLO_MN125_TuneCP5_13TeV-madgraph-pythia8,genFragments/Hadronizer/13TeV/Hadronizer_TuneCP5_13TeV_aMCatNLO_0p_LHE_pythia8_cff.py,80000,madgraph,/cvmfs/cms.cern.ch/phys_generator/gridpacks/2017/13TeV/madgraph/V5_2.6.5/DileptonTypeIHeavyN/DYTypeI_NLO_SF_M125_slc6_amd64_gcc630_CMSSW_9_3_16_tarball.tar.xz,3.5798,119.469,1.0,1.0
DYTypeIHeavyN-SFmix_Dilepton_NLO_MN150_TuneCP5_13TeV-madgraph-pythia8,genFragments/Hadronizer/13TeV/Hadronizer_TuneCP5_13TeV_aMCatNLO_0p_LHE_pythia8_cff.py,80000,madgraph,/cvmfs/cms.cern.ch/phys_generator/gridpacks/2017/13TeV/madgraph/V5_2.6.5/DileptonTypeIHeavyN/DYTypeI_NLO_SF_M150_slc6_amd64_gcc630_CMSSW_9_3_16_tarball.tar.xz,3.5553600000000003,116.9756,1.0,1.0
DYTypeIHeavyN-SFmix_Dilepton_NLO_MN200_TuneCP5_13TeV-madgraph-pythia8,genFragments/Hadronizer/13TeV/Hadronizer_TuneCP5_13TeV_aMCatNLO_0p_LHE_pythia8_cff.py,80000,madgraph,/cvmfs/cms.cern.ch/phys_generator/gridpacks/2017/13TeV/madgraph/V5_2.6.5/DileptonTypeIHeavyN/DYTypeI_NLO_SF_M200_slc6_amd64_gcc630_CMSSW_9_3_16_tarball.tar.xz,3.03658,117.9258,1.0,1.0
DYTypeIHeavyN-SFmix_Dilepton_NLO_MN250_TuneCP5_13TeV-madgraph-pythia8,genFragments/Hadronizer/13TeV/Hadronizer_TuneCP5_13TeV_aMCatNLO_0p_LHE_pythia8_cff.py,60000,madgraph,/cvmfs/cms.cern.ch/phys_generator/gridpacks/2017/13TeV/madgraph/V5_2.6.5/DileptonTypeIHeavyN/DYTypeI_NLO_SF_M250_slc6_amd64_gcc630_CMSSW_9_3_16_tarball.tar.xz,3.37384,121.4177,1.0,1.0
DYTypeIHeavyN-SFmix_Dilepton_NLO_MN300_TuneCP5_13TeV-madgraph-pythia8,genFragments/Hadronizer/13TeV/Hadronizer_TuneCP5_13TeV_aMCatNLO_0p_LHE_pythia8_cff.py,60000,madgraph,/cvmfs/cms.cern.ch/phys_generator/gridpacks/2017/13TeV/madgraph/V5_2.6.5/DileptonTypeIHeavyN/DYTypeI_NLO_SF_M300_slc6_amd64_gcc630_CMSSW_9_3_16_tarball.tar.xz,4.1160250000000005,120.2278,1.0,1.0
DYTypeIHeavyN-SFmix_Dilepton_NLO_MN400_TuneCP5_13TeV-madgraph-pythia8,genFragments/Hadronizer/13TeV/Hadronizer_TuneCP5_13TeV_aMCatNLO_0p_LHE_pythia8_cff.py,60000,madgraph,/cvmfs/cms.cern.ch/phys_generator/gridpacks/2017/13TeV/madgraph/V5_2.6.5/DileptonTypeIHeavyN/DYTypeI_NLO_SF_M400_slc6_amd64_gcc630_CMSSW_9_3_16_tarball.tar.xz,3.603955,117.3329,1.0,1.0
DYTypeIHeavyN-SFmix_Dilepton_NLO_MN500_TuneCP5_13TeV-madgraph-pythia8,genFragments/Hadronizer/13TeV/Hadronizer_TuneCP5_13TeV_aMCatNLO_0p_LHE_pythia8_cff.py,40000,madgraph,/cvmfs/cms.cern.ch/phys_generator/gridpacks/2017/13TeV/madgraph/V5_2.6.5/DileptonTypeIHeavyN/DYTypeI_NLO_SF_M500_slc6_amd64_gcc630_CMSSW_9_3_16_tarball.tar.xz,4.102505000000001,120.3701,1.0,1.0
DYTypeIHeavyN-SFmix_Dilepton_NLO_MN600_TuneCP5_13TeV-madgraph-pythia8,genFragments/Hadronizer/13TeV/Hadronizer_TuneCP5_13TeV_aMCatNLO_0p_LHE_pythia8_cff.py,40000,madgraph,/cvmfs/cms.cern.ch/phys_generator/gridpacks/2017/13TeV/madgraph/V5_2.6.5/DileptonTypeIHeavyN/DYTypeI_NLO_SF_M600_slc6_amd64_gcc630_CMSSW_9_3_16_tarball.tar.xz,3.403555,119.5939,1.0,1.0
DYTypeIHeavyN-SFmix_Dilepton_NLO_MN700_TuneCP5_13TeV-madgraph-pythia8,genFragments/Hadronizer/13TeV/Hadronizer_TuneCP5_13TeV_aMCatNLO_0p_LHE_pythia8_cff.py,40000,madgraph,/cvmfs/cms.cern.ch/phys_generator/gridpacks/2017/13TeV/madgraph/V5_2.6.5/DileptonTypeIHeavyN/DYTypeI_NLO_SF_M700_slc6_amd64_gcc630_CMSSW_9_3_16_tarball.tar.xz,3.764515,119.726,1.0,1.0
DYTypeIHeavyN-SFmix_Dilepton_NLO_MN800_TuneCP5_13TeV-madgraph-pythia8,genFragments/Hadronizer/13TeV/Hadronizer_TuneCP5_13TeV_aMCatNLO_0p_LHE_pythia8_cff.py,40000,madgraph,/cvmfs/cms.cern.ch/phys_generator/gridpacks/2017/13TeV/madgraph/V5_2.6.5/DileptonTypeIHeavyN/DYTypeI_NLO_SF_M800_slc6_amd64_gcc630_CMSSW_9_3_16_tarball.tar.xz,3.285885,118.146,1.0,1.0
DYTypeIHeavyN-SFmix_Dilepton_NLO_MN900_TuneCP5_13TeV-madgraph-pythia8,genFragments/Hadronizer/13TeV/Hadronizer_TuneCP5_13TeV_aMCatNLO_0p_LHE_pythia8_cff.py,40000,madgraph,/cvmfs/cms.cern.ch/phys_generator/gridpacks/2017/13TeV/madgraph/V5_2.6.5/DileptonTypeIHeavyN/DYTypeI_NLO_SF_M900_slc6_amd64_gcc630_CMSSW_9_3_16_tarball.tar.xz,2.662365,119.0563,1.0,1.0
DYTypeIHeavyN-SFmix_Dilepton_NLO_MN1000_TuneCP5_13TeV-madgraph-pythia8,genFragments/Hadronizer/13TeV/Hadronizer_TuneCP5_13TeV_aMCatNLO_0p_LHE_pythia8_cff.py,40000,madgraph,/cvmfs/cms.cern.ch/phys_generator/gridpacks/2017/13TeV/madgraph/V5_2.6.5/DileptonTypeIHeavyN/DYTypeI_NLO_SF_M1000_slc6_amd64_gcc630_CMSSW_9_3_16_tarball.tar.xz,3.59145,116.5465,1.0,1.0
DYTypeIHeavyN-SFmix_Dilepton_NLO_MN1100_TuneCP5_13TeV-madgraph-pythia8,genFragments/Hadronizer/13TeV/Hadronizer_TuneCP5_13TeV_aMCatNLO_0p_LHE_pythia8_cff.py,40000,madgraph,/cvmfs/cms.cern.ch/phys_generator/gridpacks/2017/13TeV/madgraph/V5_2.6.5/DileptonTypeIHeavyN/DYTypeI_NLO_SF_M1100_slc6_amd64_gcc630_CMSSW_9_3_16_tarball.tar.xz,4.5252,118.5361,1.0,1.0
DYTypeIHeavyN-SFmix_Dilepton_NLO_MN1200_TuneCP5_13TeV-madgraph-pythia8,genFragments/Hadronizer/13TeV/Hadronizer_TuneCP5_13TeV_aMCatNLO_0p_LHE_pythia8_cff.py,40000,madgraph,/cvmfs/cms.cern.ch/phys_generator/gridpacks/2017/13TeV/madgraph/V5_2.6.5/DileptonTypeIHeavyN/DYTypeI_NLO_SF_M1200_slc6_amd64_gcc630_CMSSW_9_3_16_tarball.tar.xz,3.7401999999999997,116.74,1.0,1.0
DYTypeIHeavyN-SFmix_Dilepton_NLO_MN1300_TuneCP5_13TeV-madgraph-pythia8,genFragments/Hadronizer/13TeV/Hadronizer_TuneCP5_13TeV_aMCatNLO_0p_LHE_pythia8_cff.py,40000,madgraph,/cvmfs/cms.cern.ch/phys_generator/gridpacks/2017/13TeV/madgraph/V5_2.6.5/DileptonTypeIHeavyN/DYTypeI_NLO_SF_M1300_slc6_amd64_gcc630_CMSSW_9_3_16_tarball.tar.xz,4.20339,117.3278,1.0,1.0
DYTypeIHeavyN-SFmix_Dilepton_NLO_MN1500_TuneCP5_13TeV-madgraph-pythia8,genFragments/Hadronizer/13TeV/Hadronizer_TuneCP5_13TeV_aMCatNLO_0p_LHE_pythia8_cff.py,40000,madgraph,/cvmfs/cms.cern.ch/phys_generator/gridpacks/2017/13TeV/madgraph/V5_2.6.5/DileptonTypeIHeavyN/DYTypeI_NLO_SF_M1500_slc6_amd64_gcc630_CMSSW_9_3_16_tarball.tar.xz,3.18419,114.1841,1.0,1.0
DYTypeIHeavyN-SFmix_Dilepton_NLO_MN1700_TuneCP5_13TeV-madgraph-pythia8,genFragments/Hadronizer/13TeV/Hadronizer_TuneCP5_13TeV_aMCatNLO_0p_LHE_pythia8_cff.py,40000,madgraph,/cvmfs/cms.cern.ch/phys_generator/gridpacks/2017/13TeV/madgraph/V5_2.6.5/DileptonTypeIHeavyN/DYTypeI_NLO_SF_M1700_slc6_amd64_gcc630_CMSSW_9_3_16_tarball.tar.xz,2.53807,114.9184,1.0,1.0
DYTypeIHeavyN-SFmix_Dilepton_NLO_MN2000_TuneCP5_13TeV-madgraph-pythia8,genFragments/Hadronizer/13TeV/Hadronizer_TuneCP5_13TeV_aMCatNLO_0p_LHE_pythia8_cff.py,40000,madgraph,/cvmfs/cms.cern.ch/phys_generator/gridpacks/2017/13TeV/madgraph/V5_2.6.5/DileptonTypeIHeavyN/DYTypeI_NLO_SF_M2000_slc6_amd64_gcc630_CMSSW_9_3_16_tarball.tar.xz,2.69851,111.3681,1.0,1.0
DYTypeIHeavyN-SFmix_Dilepton_NLO_MN2500_TuneCP5_13TeV-madgraph-pythia8,genFragments/Hadronizer/13TeV/Hadronizer_TuneCP5_13TeV_aMCatNLO_0p_LHE_pythia8_cff.py,40000,madgraph,/afs/cern.ch/work/j/jihunk/public/DileptonTypeIHeavyN/DYTypeI_NLO_SF_M2500_slc7_amd64_gcc700_CMSSW_10_6_19_tarball.tar.xz,2.67098,110.5213,1.0,1.0
DYTypeIHeavyN-SFmix_Dilepton_NLO_MN3000_TuneCP5_13TeV-madgraph-pythia8,genFragments/Hadronizer/13TeV/Hadronizer_TuneCP5_13TeV_aMCatNLO_0p_LHE_pythia8_cff.py,40000,madgraph,/afs/cern.ch/work/j/jihunk/public/DileptonTypeIHeavyN/DYTypeI_NLO_SF_M3000_slc7_amd64_gcc700_CMSSW_10_6_19_tarball.tar.xz,2.1452799999999996,105.1279,1.0,1.0
VBFTypeIHeavyN-SFmix_Dilepton_NLO_MN500_TuneCP5_13TeV-madgraph-pythia8,genFragments/Hadronizer/13TeV/Hadronizer_TuneCP5_13TeV_aMCatNLO_1p_LHE_pythia8_cff.py,40000,madgraph,/cvmfs/cms.cern.ch/phys_generator/gridpacks/2017/13TeV/madgraph/V5_2.6.5/DileptonTypeIHeavyN/VBFTypeI_NLO_SF_M500_slc6_amd64_gcc630_CMSSW_9_3_16_tarball.tar.xz,3.422535,107.7934,1.0,1.0
VBFTypeIHeavyN-SFmix_Dilepton_NLO_MN600_TuneCP5_13TeV-madgraph-pythia8,genFragments/Hadronizer/13TeV/Hadronizer_TuneCP5_13TeV_aMCatNLO_1p_LHE_pythia8_cff.py,40000,madgraph,/cvmfs/cms.cern.ch/phys_generator/gridpacks/2017/13TeV/madgraph/V5_2.6.5/DileptonTypeIHeavyN/VBFTypeI_NLO_SF_M600_slc6_amd64_gcc630_CMSSW_9_3_16_tarball.tar.xz,3.18659,105.773,1.0,1.0
VBFTypeIHeavyN-SFmix_Dilepton_NLO_MN700_TuneCP5_13TeV-madgraph-pythia8,genFragments/Hadronizer/13TeV/Hadronizer_TuneCP5_13TeV_aMCatNLO_1p_LHE_pythia8_cff.py,40000,madgraph,/cvmfs/cms.cern.ch/phys_generator/gridpacks/2017/13TeV/madgraph/V5_2.6.5/DileptonTypeIHeavyN/VBFTypeI_NLO_SF_M700_slc6_amd64_gcc630_CMSSW_9_3_16_tarball.tar.xz,3.5374999999999996,103.9708,1.0,1.0
VBFTypeIHeavyN-SFmix_Dilepton_NLO_MN800_TuneCP5_13TeV-madgraph-pythia8,genFragments/Hadronizer/13TeV/Hadronizer_TuneCP5_13TeV_aMCatNLO_1p_LHE_pythia8_cff.py,40000,madgraph,/cvmfs/cms.cern.ch/phys_generator/gridpacks/2017/13TeV/madgraph/V5_2.6.5/DileptonTypeIHeavyN/VBFTypeI_NLO_SF_M800_slc6_amd64_gcc630_CMSSW_9_3_16_tarball.tar.xz,4.282005,104.3169,1.0,1.0
VBFTypeIHeavyN-SFmix_Dilepton_NLO_MN900_TuneCP5_13TeV-madgraph-pythia8,genFragments/Hadronizer/13TeV/Hadronizer_TuneCP5_13TeV_aMCatNLO_1p_LHE_pythia8_cff.py,40000,madgraph,/cvmfs/cms.cern.ch/phys_generator/gridpacks/2017/13TeV/madgraph/V5_2.6.5/DileptonTypeIHeavyN/VBFTypeI_NLO_SF_M900_slc6_amd64_gcc630_CMSSW_9_3_16_tarball.tar.xz,2.9934000000000003,106.6936,1.0,1.0
VBFTypeIHeavyN-SFmix_Dilepton_NLO_MN1000_TuneCP5_13TeV-madgraph-pythia8,genFragments/Hadronizer/13TeV/Hadronizer_TuneCP5_13TeV_aMCatNLO_1p_LHE_pythia8_cff.py,40000,madgraph,/cvmfs/cms.cern.ch/phys_generator/gridpacks/2017/13TeV/madgraph/V5_2.6.5/DileptonTypeIHeavyN/VBFTypeI_NLO_SF_M1000_slc6_amd64_gcc630_CMSSW_9_3_16_tarball.tar.xz,3.772045,105.3276,1.0,1.0
VBFTypeIHeavyN-SFmix_Dilepton_NLO_MN1100_TuneCP5_13TeV-madgraph-pythia8,genFragments/Hadronizer/13TeV/Hadronizer_TuneCP5_13TeV_aMCatNLO_1p_LHE_pythia8_cff.py,40000,madgraph,/cvmfs/cms.cern.ch/phys_generator/gridpacks/2017/13TeV/madgraph/V5_2.6.5/DileptonTypeIHeavyN/VBFTypeI_NLO_SF_M1100_slc6_amd64_gcc630_CMSSW_9_3_16_tarball.tar.xz,3.403415,103.9165,1.0,1.0
VBFTypeIHeavyN-SFmix_Dilepton_NLO_MN1200_TuneCP5_13TeV-madgraph-pythia8,genFragments/Hadronizer/13TeV/Hadronizer_TuneCP5_13TeV_aMCatNLO_1p_LHE_pythia8_cff.py,40000,madgraph,/cvmfs/cms.cern.ch/phys_generator/gridpacks/2017/13TeV/madgraph/V5_2.6.5/DileptonTypeIHeavyN/VBFTypeI_NLO_SF_M1200_slc6_amd64_gcc630_CMSSW_9_3_16_tarball.tar.xz,1.898185,104.2032,1.0,1.0
VBFTypeIHeavyN-SFmix_Dilepton_NLO_MN1300_TuneCP5_13TeV-madgraph-pythia8,genFragments/Hadronizer/13TeV/Hadronizer_TuneCP5_13TeV_aMCatNLO_1p_LHE_pythia8_cff.py,40000,madgraph,/cvmfs/cms.cern.ch/phys_generator/gridpacks/2017/13TeV/madgraph/V5_2.6.5/DileptonTypeIHeavyN/VBFTypeI_NLO_SF_M1300_slc6_amd64_gcc630_CMSSW_9_3_16_tarball.tar.xz,2.07594,102.3039,1.0,1.0
VBFTypeIHeavyN-SFmix_Dilepton_NLO_MN1500_TuneCP5_13TeV-madgraph-pythia8,genFragments/Hadronizer/13TeV/Hadronizer_TuneCP5_13TeV_aMCatNLO_1p_LHE_pythia8_cff.py,40000,madgraph,/cvmfs/cms.cern.ch/phys_generator/gridpacks/2017/13TeV/madgraph/V5_2.6.5/DileptonTypeIHeavyN/VBFTypeI_NLO_SF_M1500_slc6_amd64_gcc630_CMSSW_9_3_16_tarball.tar.xz,2.182775,102.3046,1.0,1.0
VBFTypeIHeavyN-SFmix_Dilepton_NLO_MN1700_TuneCP5_13TeV-madgraph-pythia8,genFragments/Hadronizer/13TeV/Hadronizer_TuneCP5_13TeV_aMCatNLO_1p_LHE_pythia8_cff.py,40000,madgraph,/cvmfs/cms.cern.ch/phys_generator/gridpacks/2017/13TeV/madgraph/V5_2.6.5/DileptonTypeIHeavyN/VBFTypeI_NLO_SF_M1700_slc6_amd64_gcc630_CMSSW_9_3_16_tarball.tar.xz,3.142195,100.9737,1.0,1.0
VBFTypeIHeavyN-SFmix_Dilepton_NLO_MN2000_TuneCP5_13TeV-madgraph-pythia8,genFragments/Hadronizer/13TeV/Hadronizer_TuneCP5_13TeV_aMCatNLO_1p_LHE_pythia8_cff.py,40000,madgraph,/cvmfs/cms.cern.ch/phys_generator/gridpacks/2017/13TeV/madgraph/V5_2.6.5/DileptonTypeIHeavyN/VBFTypeI_NLO_SF_M2000_slc6_amd64_gcc630_CMSSW_9_3_16_tarball.tar.xz,1.94937,100.6286,1.0,1.0
VBFTypeIHeavyN-SFmix_Dilepton_NLO_MN2500_TuneCP5_13TeV-madgraph-pythia8,genFragments/Hadronizer/13TeV/Hadronizer_TuneCP5_13TeV_aMCatNLO_1p_LHE_pythia8_cff.py,40000,madgraph,/afs/cern.ch/work/j/jihunk/public/DileptonTypeIHeavyN/VBFTypeI_NLO_SF_M2500_slc7_amd64_gcc700_CMSSW_10_6_19_tarball.tar.xz,2.808985,96.9253,1.0,1.0
VBFTypeIHeavyN-SFmix_Dilepton_NLO_MN3000_TuneCP5_13TeV-madgraph-pythia8,genFragments/Hadronizer/13TeV/Hadronizer_TuneCP5_13TeV_aMCatNLO_1p_LHE_pythia8_cff.py,40000,madgraph,/afs/cern.ch/work/j/jihunk/public/DileptonTypeIHeavyN/VBFTypeI_NLO_SF_M3000_slc7_amd64_gcc700_CMSSW_10_6_19_tarball.tar.xz,2.4808000000000003,95.8734,1.0,1.0
DYTypeIHeavyN-DFmix_Dilepton_NLO_MN85_TuneCP5_13TeV-madgraph-pythia8,genFragments/Hadronizer/13TeV/Hadronizer_TuneCP5_13TeV_aMCatNLO_0p_LHE_pythia8_LepPtFilter_cff.py,200000,madgraph,/afs/cern.ch/work/j/jihunk/public/DileptonTypeIHeavyN/DYTypeI_NLO_DF_M85_slc6_amd64_gcc630_CMSSW_9_3_16_tarball.tar.xz,4.425781534772183,136.8005,1.0,0.417
DYTypeIHeavyN-DFmix_Dilepton_NLO_MN90_TuneCP5_13TeV-madgraph-pythia8,genFragments/Hadronizer/13TeV/Hadronizer_TuneCP5_13TeV_aMCatNLO_0p_LHE_pythia8_LepPtFilter_cff.py,200000,madgraph,/afs/cern.ch/work/j/jihunk/public/DileptonTypeIHeavyN/DYTypeI_NLO_DF_M90_slc6_amd64_gcc630_CMSSW_9_3_16_tarball.tar.xz,4.732456,127.7635,1.0,0.625
DYTypeIHeavyN-DFmix_Dilepton_NLO_MN95_TuneCP5_13TeV-madgraph-pythia8,genFragments/Hadronizer/13TeV/Hadronizer_TuneCP5_13TeV_aMCatNLO_0p_LHE_pythia8_LepPtFilter_cff.py,200000,madgraph,/afs/cern.ch/work/j/jihunk/public/DileptonTypeIHeavyN/DYTypeI_NLO_DF_M95_slc6_amd64_gcc630_CMSSW_9_3_16_tarball.tar.xz,4.145434303112314,122.7622,1.0,0.739
DYTypeIHeavyN-DFmix_Dilepton_NLO_MN100_TuneCP5_13TeV-madgraph-pythia8,genFragments/Hadronizer/13TeV/Hadronizer_TuneCP5_13TeV_aMCatNLO_0p_LHE_pythia8_cff.py,100000,madgraph,/afs/cern.ch/work/j/jihunk/public/DileptonTypeIHeavyN/DYTypeI_NLO_DF_M100_slc6_amd64_gcc630_CMSSW_9_3_16_tarball.tar.xz,3.637325,118.6662,1.0,1.0
DYTypeIHeavyN-DFmix_Dilepton_NLO_MN125_TuneCP5_13TeV-madgraph-pythia8,genFragments/Hadronizer/13TeV/Hadronizer_TuneCP5_13TeV_aMCatNLO_0p_LHE_pythia8_cff.py,80000,madgraph,/afs/cern.ch/work/j/jihunk/public/DileptonTypeIHeavyN/DYTypeI_NLO_DF_M125_slc6_amd64_gcc630_CMSSW_9_3_16_tarball.tar.xz,3.51374,118.6969,1.0,1.0
DYTypeIHeavyN-DFmix_Dilepton_NLO_MN150_TuneCP5_13TeV-madgraph-pythia8,genFragments/Hadronizer/13TeV/Hadronizer_TuneCP5_13TeV_aMCatNLO_0p_LHE_pythia8_cff.py,80000,madgraph,/afs/cern.ch/work/j/jihunk/public/DileptonTypeIHeavyN/DYTypeI_NLO_DF_M150_slc6_amd64_gcc630_CMSSW_9_3_16_tarball.tar.xz,3.9443599999999996,122.496,1.0,1.0
DYTypeIHeavyN-DFmix_Dilepton_NLO_MN200_TuneCP5_13TeV-madgraph-pythia8,genFragments/Hadronizer/13TeV/Hadronizer_TuneCP5_13TeV_aMCatNLO_0p_LHE_pythia8_cff.py,80000,madgraph,/afs/cern.ch/work/j/jihunk/public/DileptonTypeIHeavyN/DYTypeI_NLO_DF_M200_slc6_amd64_gcc630_CMSSW_9_3_16_tarball.tar.xz,5.09743,122.3587,1.0,1.0
DYTypeIHeavyN-DFmix_Dilepton_NLO_MN250_TuneCP5_13TeV-madgraph-pythia8,genFragments/Hadronizer/13TeV/Hadronizer_TuneCP5_13TeV_aMCatNLO_0p_LHE_pythia8_cff.py,60000,madgraph,/afs/cern.ch/work/j/jihunk/public/DileptonTypeIHeavyN/DYTypeI_NLO_DF_M250_slc6_amd64_gcc630_CMSSW_9_3_16_tarball.tar.xz,2.902945,119.1434,1.0,1.0
DYTypeIHeavyN-DFmix_Dilepton_NLO_MN300_TuneCP5_13TeV-madgraph-pythia8,genFragments/Hadronizer/13TeV/Hadronizer_TuneCP5_13TeV_aMCatNLO_0p_LHE_pythia8_cff.py,60000,madgraph,/afs/cern.ch/work/j/jihunk/public/DileptonTypeIHeavyN/DYTypeI_NLO_DF_M300_slc6_amd64_gcc630_CMSSW_9_3_16_tarball.tar.xz,3.8412800000000002,120.6671,1.0,1.0
DYTypeIHeavyN-DFmix_Dilepton_NLO_MN400_TuneCP5_13TeV-madgraph-pythia8,genFragments/Hadronizer/13TeV/Hadronizer_TuneCP5_13TeV_aMCatNLO_0p_LHE_pythia8_cff.py,60000,madgraph,/afs/cern.ch/work/j/jihunk/public/DileptonTypeIHeavyN/DYTypeI_NLO_DF_M400_slc6_amd64_gcc630_CMSSW_9_3_16_tarball.tar.xz,3.3727850000000004,118.9908,1.0,1.0
DYTypeIHeavyN-DFmix_Dilepton_NLO_MN500_TuneCP5_13TeV-madgraph-pythia8,genFragments/Hadronizer/13TeV/Hadronizer_TuneCP5_13TeV_aMCatNLO_0p_LHE_pythia8_cff.py,40000,madgraph,/afs/cern.ch/work/j/jihunk/public/DileptonTypeIHeavyN/DYTypeI_NLO_DF_M500_slc6_amd64_gcc630_CMSSW_9_3_16_tarball.tar.xz,2.8406000000000002,120.2657,1.0,1.0
DYTypeIHeavyN-DFmix_Dilepton_NLO_MN600_TuneCP5_13TeV-madgraph-pythia8,genFragments/Hadronizer/13TeV/Hadronizer_TuneCP5_13TeV_aMCatNLO_0p_LHE_pythia8_cff.py,40000,madgraph,/afs/cern.ch/work/j/jihunk/public/DileptonTypeIHeavyN/DYTypeI_NLO_DF_M600_slc6_amd64_gcc630_CMSSW_9_3_16_tarball.tar.xz,3.762335,117.763,1.0,1.0
DYTypeIHeavyN-DFmix_Dilepton_NLO_MN700_TuneCP5_13TeV-madgraph-pythia8,genFragments/Hadronizer/13TeV/Hadronizer_TuneCP5_13TeV_aMCatNLO_0p_LHE_pythia8_cff.py,40000,madgraph,/afs/cern.ch/work/j/jihunk/public/DileptonTypeIHeavyN/DYTypeI_NLO_DF_M700_slc6_amd64_gcc630_CMSSW_9_3_16_tarball.tar.xz,2.505995,120.8043,1.0,1.0
DYTypeIHeavyN-DFmix_Dilepton_NLO_MN800_TuneCP5_13TeV-madgraph-pythia8,genFragments/Hadronizer/13TeV/Hadronizer_TuneCP5_13TeV_aMCatNLO_0p_LHE_pythia8_cff.py,40000,madgraph,/afs/cern.ch/work/j/jihunk/public/DileptonTypeIHeavyN/DYTypeI_NLO_DF_M800_slc6_amd64_gcc630_CMSSW_9_3_16_tarball.tar.xz,3.855905,119.4905,1.0,1.0
DYTypeIHeavyN-DFmix_Dilepton_NLO_MN900_TuneCP5_13TeV-madgraph-pythia8,genFragments/Hadronizer/13TeV/Hadronizer_TuneCP5_13TeV_aMCatNLO_0p_LHE_pythia8_cff.py,40000,madgraph,/afs/cern.ch/work/j/jihunk/public/DileptonTypeIHeavyN/DYTypeI_NLO_DF_M900_slc6_amd64_gcc630_CMSSW_9_3_16_tarball.tar.xz,4.24467,121.0695,1.0,1.0
DYTypeIHeavyN-DFmix_Dilepton_NLO_MN1000_TuneCP5_13TeV-madgraph-pythia8,genFragments/Hadronizer/13TeV/Hadronizer_TuneCP5_13TeV_aMCatNLO_0p_LHE_pythia8_cff.py,40000,madgraph,/afs/cern.ch/work/j/jihunk/public/DileptonTypeIHeavyN/DYTypeI_NLO_DF_M1000_slc6_amd64_gcc630_CMSSW_9_3_16_tarball.tar.xz,3.0700849999999997,116.8793,1.0,1.0
DYTypeIHeavyN-DFmix_Dilepton_NLO_MN1100_TuneCP5_13TeV-madgraph-pythia8,genFragments/Hadronizer/13TeV/Hadronizer_TuneCP5_13TeV_aMCatNLO_0p_LHE_pythia8_cff.py,40000,madgraph,/afs/cern.ch/work/j/jihunk/public/DileptonTypeIHeavyN/DYTypeI_NLO_DF_M1100_slc6_amd64_gcc630_CMSSW_9_3_16_tarball.tar.xz,2.8252800000000002,118.9253,1.0,1.0
DYTypeIHeavyN-DFmix_Dilepton_NLO_MN1200_TuneCP5_13TeV-madgraph-pythia8,genFragments/Hadronizer/13TeV/Hadronizer_TuneCP5_13TeV_aMCatNLO_0p_LHE_pythia8_cff.py,40000,madgraph,/afs/cern.ch/work/j/jihunk/public/DileptonTypeIHeavyN/DYTypeI_NLO_DF_M1200_slc6_amd64_gcc630_CMSSW_9_3_16_tarball.tar.xz,2.979045,117.0923,1.0,1.0
DYTypeIHeavyN-DFmix_Dilepton_NLO_MN1300_TuneCP5_13TeV-madgraph-pythia8,genFragments/Hadronizer/13TeV/Hadronizer_TuneCP5_13TeV_aMCatNLO_0p_LHE_pythia8_cff.py,40000,madgraph,/afs/cern.ch/work/j/jihunk/public/DileptonTypeIHeavyN/DYTypeI_NLO_DF_M1300_slc6_amd64_gcc630_CMSSW_9_3_16_tarball.tar.xz,3.564895,119.7998,1.0,1.0
DYTypeIHeavyN-DFmix_Dilepton_NLO_MN1500_TuneCP5_13TeV-madgraph-pythia8,genFragments/Hadronizer/13TeV/Hadronizer_TuneCP5_13TeV_aMCatNLO_0p_LHE_pythia8_cff.py,40000,madgraph,/afs/cern.ch/work/j/jihunk/public/DileptonTypeIHeavyN/DYTypeI_NLO_DF_M1500_slc6_amd64_gcc630_CMSSW_9_3_16_tarball.tar.xz,2.45599,115.1764,1.0,1.0
DYTypeIHeavyN-DFmix_Dilepton_NLO_MN1700_TuneCP5_13TeV-madgraph-pythia8,genFragments/Hadronizer/13TeV/Hadronizer_TuneCP5_13TeV_aMCatNLO_0p_LHE_pythia8_cff.py,40000,madgraph,/afs/cern.ch/work/j/jihunk/public/DileptonTypeIHeavyN/DYTypeI_NLO_DF_M1700_slc6_amd64_gcc630_CMSSW_9_3_16_tarball.tar.xz,2.725675,113.3762,1.0,1.0
DYTypeIHeavyN-DFmix_Dilepton_NLO_MN2000_TuneCP5_13TeV-madgraph-pythia8,genFragments/Hadronizer/13TeV/Hadronizer_TuneCP5_13TeV_aMCatNLO_0p_LHE_pythia8_cff.py,40000,madgraph,/afs/cern.ch/work/j/jihunk/public/DileptonTypeIHeavyN/DYTypeI_NLO_DF_M2000_slc6_amd64_gcc630_CMSSW_9_3_16_tarball.tar.xz,2.82235,112.8929,1.0,1.0
DYTypeIHeavyN-DFmix_Dilepton_NLO_MN2500_TuneCP5_13TeV-madgraph-pythia8,genFragments/Hadronizer/13TeV/Hadronizer_TuneCP5_13TeV_aMCatNLO_0p_LHE_pythia8_cff.py,40000,madgraph,/afs/cern.ch/work/j/jihunk/public/DileptonTypeIHeavyN/DYTypeI_NLO_DF_M2500_slc7_amd64_gcc700_CMSSW_10_6_19_tarball.tar.xz,2.134905,108.0862,1.0,1.0
DYTypeIHeavyN-DFmix_Dilepton_NLO_MN3000_TuneCP5_13TeV-madgraph-pythia8,genFragments/Hadronizer/13TeV/Hadronizer_TuneCP5_13TeV_aMCatNLO_0p_LHE_pythia8_cff.py,40000,madgraph,/afs/cern.ch/work/j/jihunk/public/DileptonTypeIHeavyN/DYTypeI_NLO_DF_M3000_slc7_amd64_gcc700_CMSSW_10_6_19_tarball.tar.xz,1.986655,106.284,1.0,1.0
VBFTypeIHeavyN-DFmix_Dilepton_NLO_MN500_TuneCP5_13TeV-madgraph-pythia8,genFragments/Hadronizer/13TeV/Hadronizer_TuneCP5_13TeV_aMCatNLO_1p_LHE_pythia8_cff.py,40000,madgraph,/afs/cern.ch/work/j/jihunk/public/DileptonTypeIHeavyN/VBFTypeI_NLO_DF_M500_slc6_amd64_gcc630_CMSSW_9_3_16_tarball.tar.xz,2.98914,106.326,1.0,1.0
VBFTypeIHeavyN-DFmix_Dilepton_NLO_MN600_TuneCP5_13TeV-madgraph-pythia8,genFragments/Hadronizer/13TeV/Hadronizer_TuneCP5_13TeV_aMCatNLO_1p_LHE_pythia8_cff.py,40000,madgraph,/afs/cern.ch/work/j/jihunk/public/DileptonTypeIHeavyN/VBFTypeI_NLO_DF_M600_slc6_amd64_gcc630_CMSSW_9_3_16_tarball.tar.xz,3.3771199999999997,106.2594,1.0,1.0
VBFTypeIHeavyN-DFmix_Dilepton_NLO_MN700_TuneCP5_13TeV-madgraph-pythia8,genFragments/Hadronizer/13TeV/Hadronizer_TuneCP5_13TeV_aMCatNLO_1p_LHE_pythia8_cff.py,40000,madgraph,/afs/cern.ch/work/j/jihunk/public/DileptonTypeIHeavyN/VBFTypeI_NLO_DF_M700_slc6_amd64_gcc630_CMSSW_9_3_16_tarball.tar.xz,3.349125,106.0423,1.0,1.0
VBFTypeIHeavyN-DFmix_Dilepton_NLO_MN800_TuneCP5_13TeV-madgraph-pythia8,genFragments/Hadronizer/13TeV/Hadronizer_TuneCP5_13TeV_aMCatNLO_1p_LHE_pythia8_cff.py,40000,madgraph,/afs/cern.ch/work/j/jihunk/public/DileptonTypeIHeavyN/VBFTypeI_NLO_DF_M800_slc6_amd64_gcc630_CMSSW_9_3_16_tarball.tar.xz,3.59157,106.6465,1.0,1.0
VBFTypeIHeavyN-DFmix_Dilepton_NLO_MN900_TuneCP5_13TeV-madgraph-pythia8,genFragments/Hadronizer/13TeV/Hadronizer_TuneCP5_13TeV_aMCatNLO_1p_LHE_pythia8_cff.py,40000,madgraph,/afs/cern.ch/work/j/jihunk/public/DileptonTypeIHeavyN/VBFTypeI_NLO_DF_M900_slc6_amd64_gcc630_CMSSW_9_3_16_tarball.tar.xz,3.19398,105.3614,1.0,1.0
VBFTypeIHeavyN-DFmix_Dilepton_NLO_MN1000_TuneCP5_13TeV-madgraph-pythia8,genFragments/Hadronizer/13TeV/Hadronizer_TuneCP5_13TeV_aMCatNLO_1p_LHE_pythia8_cff.py,40000,madgraph,/afs/cern.ch/work/j/jihunk/public/DileptonTypeIHeavyN/VBFTypeI_NLO_DF_M1000_slc6_amd64_gcc630_CMSSW_9_3_16_tarball.tar.xz,3.19874,104.1602,1.0,1.0
VBFTypeIHeavyN-DFmix_Dilepton_NLO_MN1100_TuneCP5_13TeV-madgraph-pythia8,genFragments/Hadronizer/13TeV/Hadronizer_TuneCP5_13TeV_aMCatNLO_1p_LHE_pythia8_cff.py,40000,madgraph,/afs/cern.ch/work/j/jihunk/public/DileptonTypeIHeavyN/VBFTypeI_NLO_DF_M1100_slc6_amd64_gcc630_CMSSW_9_3_16_tarball.tar.xz,3.01111,102.7758,1.0,1.0
VBFTypeIHeavyN-DFmix_Dilepton_NLO_MN1200_TuneCP5_13TeV-madgraph-pythia8,genFragments/Hadronizer/13TeV/Hadronizer_TuneCP5_13TeV_aMCatNLO_1p_LHE_pythia8_cff.py,40000,madgraph,/afs/cern.ch/work/j/jihunk/public/DileptonTypeIHeavyN/VBFTypeI_NLO_DF_M1200_slc6_amd64_gcc630_CMSSW_9_3_16_tarball.tar.xz,3.038745,101.9682,1.0,1.0
VBFTypeIHeavyN-DFmix_Dilepton_NLO_MN1300_TuneCP5_13TeV-madgraph-pythia8,genFragments/Hadronizer/13TeV/Hadronizer_TuneCP5_13TeV_aMCatNLO_1p_LHE_pythia8_cff.py,40000,madgraph,/afs/cern.ch/work/j/jihunk/public/DileptonTypeIHeavyN/VBFTypeI_NLO_DF_M1300_slc6_amd64_gcc630_CMSSW_9_3_16_tarball.tar.xz,3.104095,102.9662,1.0,1.0
VBFTypeIHeavyN-DFmix_Dilepton_NLO_MN1500_TuneCP5_13TeV-madgraph-pythia8,genFragments/Hadronizer/13TeV/Hadronizer_TuneCP5_13TeV_aMCatNLO_1p_LHE_pythia8_cff.py,40000,madgraph,/afs/cern.ch/work/j/jihunk/public/DileptonTypeIHeavyN/VBFTypeI_NLO_DF_M1500_slc6_amd64_gcc630_CMSSW_9_3_16_tarball.tar.xz,3.28615,101.3836,1.0,1.0
VBFTypeIHeavyN-DFmix_Dilepton_NLO_MN1700_TuneCP5_13TeV-madgraph-pythia8,genFragments/Hadronizer/13TeV/Hadronizer_TuneCP5_13TeV_aMCatNLO_1p_LHE_pythia8_cff.py,40000,madgraph,/afs/cern.ch/work/j/jihunk/public/DileptonTypeIHeavyN/VBFTypeI_NLO_DF_M1700_slc6_amd64_gcc630_CMSSW_9_3_16_tarball.tar.xz,3.080465,103.1557,1.0,1.0
VBFTypeIHeavyN-DFmix_Dilepton_NLO_MN2000_TuneCP5_13TeV-madgraph-pythia8,genFragments/Hadronizer/13TeV/Hadronizer_TuneCP5_13TeV_aMCatNLO_1p_LHE_pythia8_cff.py,40000,madgraph,/afs/cern.ch/work/j/jihunk/public/DileptonTypeIHeavyN/VBFTypeI_NLO_DF_M2000_slc6_amd64_gcc630_CMSSW_9_3_16_tarball.tar.xz,2.7869650000000004,98.7626,1.0,1.0
VBFTypeIHeavyN-DFmix_Dilepton_NLO_MN2500_TuneCP5_13TeV-madgraph-pythia8,genFragments/Hadronizer/13TeV/Hadronizer_TuneCP5_13TeV_aMCatNLO_1p_LHE_pythia8_cff.py,40000,madgraph,/afs/cern.ch/work/j/jihunk/public/DileptonTypeIHeavyN/VBFTypeI_NLO_DF_M2500_slc7_amd64_gcc700_CMSSW_10_6_19_tarball.tar.xz,2.58629,99.0064,1.0,1.0
VBFTypeIHeavyN-DFmix_Dilepton_NLO_MN3000_TuneCP5_13TeV-madgraph-pythia8,genFragments/Hadronizer/13TeV/Hadronizer_TuneCP5_13TeV_aMCatNLO_1p_LHE_pythia8_cff.py,40000,madgraph,/afs/cern.ch/work/j/jihunk/public/DileptonTypeIHeavyN/VBFTypeI_NLO_DF_M3000_slc7_amd64_gcc700_CMSSW_10_6_19_tarball.tar.xz,2.972835,94.8563,1.0,1.0
